filename,width,height,class,xmin,ymin,xmax,ymax
edited2112038.jpg,256,256,omellete,40,4,180,256
edited1 (85).jpg,256,256,apple,110,67,179,163
edited2174627.jpg,256,256,omellete,4,53,256,256
edited2504498.jpg,256,256,garlic bread,18,40,227,256
edited1 (31).jpg,256,256,apple,92,38,184,208
edited3 (27).jpg,256,256,apple,101,26,219,178
edited1 (21).jpg,256,256,apple,89,60,178,203
edited2117809.jpg,256,256,mac and cheese,38,4,256,256
edited2214955.jpg,256,256,mac and cheese,17,44,251,211
editedimages - 2021-01-13T122728.406.jpg,256,256,rice,49,43,228,173
edited2 (26).jpg,256,256,apple,90,8,190,187
edited2871354.jpg,256,256,garlic bread,1,1,256,256
edited2615826.jpg,256,256,french fries,1,1,256,256
edited1953538.jpg,256,256,cake,26,7,256,200
edited2835258.jpg,256,256,garlic bread,1,1,251,247
edited1831501.jpg,256,256,ice cream,20,10,219,189
edited2086918.jpg,256,256,mac and cheese,4,19,235,222
images - 2021-01-15T124205.748.jpg,251,201,sandwich,1,154,76,198
images - 2021-01-15T124205.748.jpg,251,201,sandwich,32,1,77,57
images - 2021-01-15T124205.748.jpg,251,201,sandwich,115,26,162,54
edited1897831.jpg,256,256,mac and cheese,1,8,255,254
edited2058777.jpg,256,256,ice cream,20,1,232,256
editedimages - 2021-01-13T122722.677.jpg,256,256,rice,19,19,240,234
edited2102413.jpg,256,256,omellete,28,4,256,256
edited1856539.jpg,256,256,ice cream,2,57,134,212
edited2025308.jpg,256,256,omellete,29,1,240,256
images - 2021-01-15T124134.030.jpg,100,100,sandwich,6,17,100,87
editedimages - 2021-01-13T122754.196.jpg,256,256,rice,1,33,171,232
images (31).jpg,279,181,sandwich,32,69,188,151
edited3 (54).jpg,256,256,apple,57,1,237,247
edited1979759.jpg,256,256,omellete,85,10,256,150
editedimages - 2021-01-13T122757.723.jpg,256,256,rice,18,47,254,184
edited1907370.jpg,256,256,donut,32,9,229,246
edited2107744.jpg,256,256,garlic bread,19,66,256,256
edited1 (87).jpg,256,256,apple,109,91,165,181
edited1762287.jpg,256,256,omellete,127,53,256,256
edited2127530.jpg,256,256,french fries,1,1,255,255
edited2740325.jpg,256,256,garlic bread,106,61,219,152
edited2740325.jpg,256,256,garlic bread,1,60,82,151
images - 2021-01-15T124138.276.jpg,201,251,sandwich,18,117,104,205
edited2307202.jpg,256,256,french fries,1,1,255,255
edited2050040.jpg,256,256,mac and cheese,24,15,227,152
images - 2021-01-15T124144.010.jpg,259,194,sandwich,72,50,250,127
edited2664100.jpg,256,256,garlic bread,148,22,246,135
edited2201801.jpg,256,256,cake,9,7,256,256
edited1825607.jpg,256,256,mac and cheese,1,32,250,211
edited2116212.jpg,256,256,mac and cheese,33,57,215,171
edited2164013.jpg,256,256,ice cream,1,11,256,245
edited1853929.jpg,256,256,cake,9,1,237,244
images - 2021-01-15T124137.715.jpg,275,183,sandwich,26,45,91,130
images - 2021-01-15T124137.715.jpg,275,183,sandwich,155,53,228,116
edited2444341.jpg,256,256,cake,30,82,227,187
edited2369424.jpg,256,256,french fries,85,68,256,256
edited1503725.jpg,256,256,donut,72,127,157,191
images (16).jpg,194,259,sandwich,10,100,173,180
edited2353308.jpg,256,256,cake,48,34,199,221
edited2447554.jpg,256,256,cake,54,112,120,202
edited2447554.jpg,256,256,cake,122,109,184,204
edited1996975.jpg,256,256,ice cream,1,34,169,230
edited2644820.jpg,256,256,french fries,14,41,220,237
edited2449018.jpg,256,256,cake,20,58,227,214
edited1897579.jpg,256,256,mac and cheese,1,1,256,256
images (58).jpg,300,168,sandwich,99,63,242,167
edited2146803.jpg,256,256,ice cream,1,1,256,251
edited1994385.jpg,256,256,mac and cheese,1,1,255,256
edited1538020.jpg,256,256,donut,60,47,228,200
editedimages - 2021-01-13T122812.279.jpg,256,256,rice,10,108,207,256
edited2118296.jpg,256,256,garlic bread,1,111,256,256
edited2118296.jpg,256,256,garlic bread,46,16,256,77
edited2104902.jpg,256,256,garlic bread,2,95,36,186
edited2104902.jpg,256,256,garlic bread,85,60,180,142
edited1932966.jpg,256,256,ice cream,118,133,224,241
edited1932966.jpg,256,256,ice cream,40,38,100,107
edited1932966.jpg,256,256,ice cream,130,7,195,77
edited2271466.jpg,256,256,french fries,18,1,256,256
edited2189231.jpg,256,256,french fries,2,19,256,256
edited1829368.jpg,256,256,donut,119,80,256,211
edited2324392.jpg,256,256,cake,34,51,234,180
edited1743779.jpg,256,256,donut,1,24,65,145
edited1743779.jpg,256,256,donut,152,2,248,110
edited2414363.jpg,256,256,mac and cheese,11,35,256,256
edited1858453.jpg,256,256,donut,118,14,252,137
edited1858453.jpg,256,256,donut,1,114,112,256
edited1981898.jpg,256,256,cake,45,6,240,147
images - 2021-01-15T124209.645.jpg,183,275,sandwich,20,103,169,194
edited2 (27).jpg,256,256,apple,92,28,179,183
images (56).jpg,183,275,sandwich,5,64,143,225
edited2361094.jpg,256,256,french fries,26,1,256,256
edited2043407.jpg,256,256,ice cream,10,30,220,256
edited1 (63).jpg,256,256,apple,115,22,194,164
edited2399205.jpg,256,256,mac and cheese,4,39,237,197
edited2628143.jpg,256,256,french fries,17,30,256,255
edited2 (29).jpg,256,256,apple,74,29,180,206
edited2532241.jpg,256,256,garlic bread,65,1,219,178
edited1945937.jpg,256,256,ice cream,12,24,244,238
edited2413861.jpg,256,256,omellete,120,91,224,256
edited3 (22).jpg,256,256,apple,72,22,193,175
edited1764307.jpg,256,256,mac and cheese,32,69,241,190
edited2367382.jpg,256,256,omellete,54,59,191,198
edited1 (60).jpg,256,256,apple,89,1,190,170
images - 2021-01-15T124141.909.jpg,183,275,sandwich,76,77,175,222
edited2231258.jpg,256,256,garlic bread,1,52,220,252
edited3 (7).jpg,256,256,apple,28,23,203,256
edited1828947.jpg,256,256,ice cream,96,48,256,224
edited2225554.jpg,256,256,ice cream,26,16,256,256
edited2475627.jpg,256,256,garlic bread,59,68,195,236
edited1550952.jpg,256,256,donut,4,26,100,108
edited1550952.jpg,256,256,donut,32,133,157,236
edited1728148.jpg,256,256,donut,23,59,134,234
edited2120507.jpg,256,256,mac and cheese,2,21,252,256
editedimages - 2021-01-13T122756.722.jpg,256,256,rice,45,1,230,221
edited2186579.jpg,256,256,cake,3,2,256,218
edited1816086.jpg,256,256,ice cream,58,4,227,255
edited2650142.jpg,256,256,french fries,9,41,256,175
edited2326652.jpg,256,256,garlic bread,27,36,256,242
edited2399353.jpg,256,256,mac and cheese,36,35,234,232
edited2624207.jpg,256,256,french fries,1,1,255,255
edited2 (19).jpg,256,256,apple,90,60,181,206
edited1894596.jpg,256,256,ice cream,1,1,256,256
images (9).jpg,275,183,sandwich,12,7,172,134
edited1 (80).jpg,256,256,apple,92,7,189,197
edited2510721.jpg,256,256,french fries,1,3,256,256
images - 2021-01-15T124140.611.jpg,272,186,sandwich,1,3,272,186
edited1539730.jpg,256,256,donut,1,31,66,121
edited1539730.jpg,256,256,donut,155,119,256,254
edited1539730.jpg,256,256,donut,1,125,67,217
editedimages - 2021-01-13T122743.229.jpg,256,256,rice,63,12,220,256
edited1783973.jpg,256,256,mac and cheese,21,39,256,220
editedimages - 2021-01-13T122818.742.jpg,256,256,rice,80,2,256,256
edited2122392.jpg,256,256,garlic bread,94,43,245,230
editedimages - 2021-01-13T122730.110.jpg,256,256,rice,91,46,193,117
edited1701549.jpg,256,256,omellete,2,112,246,256
edited2146228.jpg,256,256,french fries,8,11,256,250
edited1888554.jpg,256,256,cake,65,41,179,154
edited2 (32).jpg,256,256,apple,92,46,190,195
editedimages - 2021-01-13T122758.059.jpg,256,256,rice,70,38,228,253
images - 2021-01-15T124138.709.jpg,263,192,sandwich,23,12,237,100
images (63).jpg,281,180,sandwich,63,35,224,140
edited1954727.jpg,256,256,ice cream,90,59,243,221
edited1807710.jpg,256,256,mac and cheese,1,1,249,256
edited2202446.jpg,256,256,ice cream,33,15,210,256
edited2097370.jpg,256,256,ice cream,1,24,118,140
edited2097370.jpg,256,256,ice cream,59,153,205,256
edited2348992.jpg,256,256,french fries,1,2,256,256
edited2137557.jpg,256,256,garlic bread,11,66,117,195
edited2137557.jpg,256,256,garlic bread,138,36,256,131
editedimages - 2021-01-13T122723.367.jpg,256,256,rice,1,17,254,256
edited1945454.jpg,256,256,mac and cheese,1,6,256,246
edited1668780.jpg,256,256,omellete,4,35,252,256
edited1883083.jpg,256,256,ice cream,7,1,256,253
edited1995585.jpg,256,256,cake,2,21,256,256
edited1 (55).jpg,256,256,apple,104,40,176,172
edited2487402.jpg,256,256,garlic bread,23,82,256,256
edited2 (23).jpg,256,256,apple,90,29,189,190
edited1 (39).jpg,256,256,apple,99,48,182,179
edited2215693.jpg,256,256,french fries,1,1,256,256
edited3 (15).jpg,256,256,apple,100,37,186,154
editedimages - 2021-01-13T122800.894.jpg,256,256,rice,45,95,201,186
images - 2021-01-15T124135.722.jpg,183,276,sandwich,19,142,162,232
edited1 (81).jpg,256,256,apple,97,58,160,167
edited2357939.jpg,256,256,french fries,18,7,237,252
edited1873032.jpg,256,256,omellete,1,6,234,201
images - 2021-01-15T124202.893.jpg,225,225,sandwich,52,71,225,225
edited2043013.jpg,256,256,cake,32,23,194,201
edited2091683.jpg,256,256,french fries,1,5,256,236
edited2592760.jpg,256,256,garlic bread,1,1,256,237
edited2093404.jpg,256,256,mac and cheese,32,64,222,214
edited1924398.jpg,256,256,ice cream,36,6,223,169
edited1502830.jpg,256,256,donut,44,92,148,173
edited2002154.jpg,256,256,donut,99,81,177,169
edited2002154.jpg,256,256,donut,15,15,98,90
images - 2021-01-15T124135.422.jpg,240,210,sandwich,142,5,229,77
edited2239479.jpg,256,256,french fries,1,1,256,256
edited2654617.jpg,256,256,garlic bread,1,1,256,256
edited2031335.jpg,256,256,donut,28,111,229,248
edited1801809.jpg,256,256,ice cream,40,32,256,256
edited2514490.jpg,256,256,garlic bread,44,55,229,214
edited1867849.jpg,256,256,cake,14,9,237,211
edited2207799.jpg,256,256,cake,111,51,231,194
images - 2021-01-15T124147.391.jpg,201,251,sandwich,103,92,195,200
images - 2021-01-15T124134.280.jpg,275,183,sandwich,1,2,228,183
edited1788759.jpg,256,256,mac and cheese,5,49,256,202
edited2261779.jpg,256,256,omellete,79,41,202,224
edited2208114.jpg,256,256,donut,1,1,138,150
edited2314275.jpg,256,256,mac and cheese,1,2,256,256
edited2143748.jpg,256,256,omellete,8,64,256,256
edited2270900.jpg,256,256,mac and cheese,8,31,252,171
edited1792519.jpg,256,256,omellete,1,1,162,255
edited1 (74).jpg,256,256,apple,93,29,184,195
edited1668939.jpg,256,256,omellete,29,12,256,244
images - 2021-01-15T124140.872.jpg,301,167,sandwich,18,2,301,167
edited2141908.jpg,256,256,omellete,1,1,256,233
editedimages - 2021-01-13T122724.643.jpg,256,256,rice,4,53,256,218
editedimages - 2021-01-13T122729.334.jpg,256,256,rice,1,81,256,229
edited2078400.jpg,256,256,cake,1,1,137,166
edited1981410.jpg,256,256,ice cream,2,10,152,247
edited1981410.jpg,256,256,ice cream,162,11,256,239
edited1864084.jpg,256,256,omellete,53,61,256,256
edited2308431.jpg,256,256,mac and cheese,2,18,256,256
edited2409778.jpg,256,256,garlic bread,1,70,142,256
edited2409778.jpg,256,256,garlic bread,147,16,256,147
edited2341366.jpg,256,256,omellete,7,52,168,214
edited2700217.jpg,256,256,french fries,1,2,256,256
edited1971651.jpg,256,256,ice cream,7,20,256,229
edited2112918.jpg,256,256,mac and cheese,2,119,254,256
images - 2021-01-15T124136.169.jpg,186,271,sandwich,5,130,165,235
edited2289490.jpg,256,256,garlic bread,34,129,150,238
images (42).jpg,275,183,sandwich,65,25,244,138
edited2120757.jpg,256,256,ice cream,34,31,244,204
edited1 (27).jpg,256,256,apple,85,55,163,191
edited1672393.jpg,256,256,donut,1,187,130,248
edited1672393.jpg,256,256,donut,1,52,116,119
edited2624567.jpg,256,256,french fries,1,1,254,254
edited1536111.jpg,256,256,donut,35,44,235,241
edited1971283.jpg,256,256,omellete,4,48,237,171
edited1842247.jpg,256,256,cake,2,5,206,209
edited1871035.jpg,256,256,cake,12,36,256,232
edited2229560.jpg,256,256,omellete,46,6,232,256
edited2479432.jpg,256,256,garlic bread,67,26,247,197
edited2120760.jpg,256,256,ice cream,25,25,232,192
edited2099862.jpg,256,256,garlic bread,68,83,179,168
edited2099862.jpg,256,256,garlic bread,115,2,195,46
images (49).jpg,183,275,sandwich,1,56,183,151
edited2181680.jpg,256,256,cake,67,43,243,167
edited2164792.jpg,256,256,donut,84,116,192,243
edited2164792.jpg,256,256,donut,105,2,211,112
edited2891470.jpg,256,256,garlic bread,10,134,123,256
edited2891470.jpg,256,256,garlic bread,114,9,203,115
edited2047723.jpg,256,256,cake,1,4,256,253
edited2457672.jpg,256,256,mac and cheese,7,32,249,209
edited2236241.jpg,256,256,omellete,11,2,253,232
edited2327262.jpg,256,256,cake,2,36,217,245
edited2 (5).jpg,256,256,apple,96,45,184,187
editedimages - 2021-01-13T122753.096.jpg,256,256,rice,5,19,254,245
edited1554280.jpg,256,256,donut,122,130,229,238
images - 2021-01-15T124138.862.jpg,237,212,sandwich,1,2,237,212
edited2246161.jpg,256,256,french fries,1,13,256,256
edited2345918.jpg,256,256,garlic bread,13,3,256,256
edited1747789.jpg,256,256,omellete,145,11,256,212
edited1989816.jpg,256,256,donut,109,98,154,154
edited2332015.jpg,256,256,cake,2,2,256,255
images - 2021-01-15T124133.338.jpg,306,165,sandwich,212,39,306,118
edited2219487.jpg,256,256,donut,7,4,256,256
editedimages - 2021-01-13T122741.428.jpg,256,256,rice,46,36,196,248
edited2714782.jpg,256,256,french fries,41,6,256,168
edited2Q__.jpg,256,256,rice,7,17,255,227
edited1808018.jpg,256,256,ice cream,12,26,221,248
edited2696740.jpg,256,256,french fries,3,39,256,208
images - 2021-01-15T124137.745.jpg,184,274,sandwich,12,83,161,161
edited2068301.jpg,256,256,ice cream,4,1,256,256
edited2521724.jpg,256,256,french fries,1,1,256,256
editedimages - 2021-01-13T122746.703.jpg,256,256,rice,5,1,237,256
edited2326398.jpg,256,256,garlic bread,27,29,256,256
edited2209119.jpg,256,256,ice cream,18,4,198,254
edited2246621.jpg,256,256,french fries,1,6,256,256
edited3 (12).jpg,256,256,apple,80,42,209,207
editedimages - 2021-01-13T122748.710.jpg,256,256,rice,46,69,256,256
edited1863832.jpg,256,256,mac and cheese,1,29,253,255
edited2454143.jpg,256,256,garlic bread,22,19,255,206
edited2084518.jpg,256,256,donut,1,126,132,256
editedimages - 2021-01-13T122742.627.jpg,256,256,rice,1,14,254,217
edited1836376.jpg,256,256,cake,1,2,195,175
editedimages - 2021-01-13T122802.257.jpg,256,256,rice,1,29,256,247
edited1919249.jpg,256,256,ice cream,23,9,220,256
edited2413615.jpg,256,256,french fries,2,60,256,256
edited2309622.jpg,256,256,french fries,1,2,256,256
edited2779647.jpg,256,256,garlic bread,1,14,256,256
edited1879191.jpg,256,256,ice cream,20,1,202,256
edited2239374.jpg,256,256,garlic bread,4,26,256,256
edited2427544.jpg,256,256,cake,1,2,256,256
editedimages - 2021-01-13T122810.298.jpg,256,256,rice,91,18,256,202
edited3 (37).jpg,256,256,apple,41,1,201,223
editedimages - 2021-01-13T122821.289.jpg,256,256,rice,34,5,256,250
edited2041977.jpg,256,256,omellete,40,99,219,256
editedimages - 2021-01-13T122809.738.jpg,256,256,rice,14,44,256,256
edited2068691.jpg,256,256,ice cream,7,12,256,256
edited3 (48).jpg,256,256,apple,88,21,195,177
edited1907019.jpg,256,256,mac and cheese,13,19,246,186
edited3 (51).jpg,256,256,apple,71,6,222,230
images - 2021-01-15T124144.940.jpg,352,143,sandwich,106,2,326,143
edited2 (9).jpg,256,256,apple,95,27,188,199
images - 2021-01-15T124135.035.jpg,275,183,sandwich,18,1,265,166
edited2117632.jpg,256,256,donut,124,133,256,256
edited2117632.jpg,256,256,donut,120,44,240,127
edited1877155.jpg,256,256,omellete,64,55,254,227
edited1981312.jpg,256,256,omellete,4,37,256,221
edited1800583.jpg,256,256,mac and cheese,30,41,223,164
edited1 (71).jpg,256,256,apple,86,12,204,223
edited2467467.jpg,256,256,mac and cheese,21,54,212,194
editedimages - 2021-01-13T122745.691.jpg,256,256,rice,46,18,209,214
edited2550720.jpg,256,256,french fries,1,2,256,256
editedimages - 2021-01-13T122728.980.jpg,256,256,rice,7,29,244,215
edited2895042.jpg,256,256,garlic bread,1,5,256,256
edited2603436.jpg,256,256,french fries,3,59,256,212
edited1802769.jpg,256,256,mac and cheese,1,7,256,256
edited1792393.jpg,256,256,omellete,50,43,173,194
edited1918103.jpg,256,256,ice cream,31,68,116,201
edited1918103.jpg,256,256,ice cream,121,58,206,206
edited2527291.jpg,256,256,french fries,24,2,245,256
edited2313315.jpg,256,256,french fries,3,4,256,256
editedimages - 2021-01-13T122730.431.jpg,256,256,rice,5,35,236,242
editedimages - 2021-01-13T122812.565.jpg,256,256,rice,36,66,213,182
2Q__ (6).jpg,225,225,sandwich,97,34,184,118
2Q__ (6).jpg,225,225,sandwich,1,100,85,189
edited1894280.jpg,256,256,cake,54,25,233,152
edited2435637.jpg,256,256,cake,6,62,252,232
edited1880057.jpg,256,256,cake,54,39,217,236
edited2123891.jpg,256,256,cake,1,5,256,256
edited2128557.jpg,256,256,french fries,1,3,256,256
edited2572849.jpg,256,256,french fries,20,120,183,256
images (68).jpg,299,169,sandwich,62,50,210,169
edited2011498.jpg,256,256,cake,27,7,256,250
edited2331134.jpg,256,256,french fries,30,20,256,256
edited2213359.jpg,256,256,garlic bread,1,23,170,121
edited2110698.jpg,256,256,ice cream,99,17,256,256
edited2279576.jpg,256,256,french fries,1,2,256,256
edited1469810.jpg,256,256,donut,1,20,256,256
edited2 (41).jpg,256,256,apple,98,53,178,196
edited1 (28).jpg,256,256,apple,82,47,164,188
edited2278442.jpg,256,256,ice cream,79,56,189,253
edited1972764.jpg,256,256,cake,1,20,256,256
edited2185317.jpg,256,256,donut,9,33,169,197
images (36).jpg,300,168,sandwich,1,1,259,168
edited1923799.jpg,256,256,cake,117,22,197,98
images (78).jpg,259,194,sandwich,12,10,233,158
edited2 (25).jpg,256,256,apple,90,7,186,184
edited1830189.jpg,256,256,ice cream,20,6,206,232
edited2031472.jpg,256,256,donut,74,139,181,234
edited2031472.jpg,256,256,donut,5,44,97,130
edited1915289.jpg,256,256,mac and cheese,16,132,206,256
edited2228748.jpg,256,256,garlic bread,46,104,215,209
edited2475220.jpg,256,256,garlic bread,1,1,202,194
edited1800461.jpg,256,256,donut,64,29,256,222
editedimages - 2021-01-13T122738.162.jpg,256,256,rice,1,2,247,256
edited2298247.jpg,256,256,donut,1,142,149,256
edited2419190.jpg,256,256,cake,17,39,233,214
edited9k_ (1).jpg,256,256,rice,4,2,256,256
edited1791020.jpg,256,256,cake,12,13,203,239
edited2082676.jpg,256,256,french fries,7,4,256,175
edited1 (51).jpg,256,256,apple,109,69,176,182
edited2205272.jpg,256,256,donut,133,75,192,180
images (46).jpg,199,253,sandwich,16,46,157,175
edited1750908.jpg,256,256,omellete,22,70,256,239
2Q__ (8).jpg,183,275,sandwich,1,58,175,160
edited2596850.jpg,256,256,french fries,1,26,215,255
edited3 (11).jpg,256,256,apple,89,22,211,179
edited2315702.jpg,256,256,cake,1,7,256,256
edited2414771.jpg,256,256,french fries,19,52,237,246
editedimages - 2021-01-13T122728.718.jpg,256,256,rice,21,76,242,216
edited2038167.jpg,256,256,cake,1,3,255,256
edited2749617.jpg,256,256,garlic bread,1,1,256,256
editedimages - 2021-01-13T122725.765.jpg,256,256,rice,57,50,227,206
editedimages - 2021-01-13T122808.624.jpg,256,256,rice,1,65,193,232
edited2592784.jpg,256,256,garlic bread,1,41,256,256
editedimages - 2021-01-13T122733.713.jpg,256,256,rice,2,44,256,244
edited2539272.jpg,256,256,french fries,37,35,256,256
editedimages - 2021-01-13T122823.393.jpg,256,256,rice,58,28,215,216
edited1908205.jpg,256,256,ice cream,23,7,228,256
edited3 (19).jpg,256,256,apple,77,15,199,181
edited9k_ (5).jpg,256,256,rice,42,57,220,198
edited2201195.jpg,256,256,omellete,67,76,256,256
edited2487311.jpg,256,256,french fries,69,18,256,254
edited3 (49).jpg,256,256,apple,82,21,201,186
edited2376846.jpg,256,256,omellete,33,95,140,237
images (29).jpg,229,220,sandwich,117,134,229,220
images (29).jpg,229,220,sandwich,6,108,114,220
images (29).jpg,229,220,sandwich,3,2,113,102
images (29).jpg,229,220,sandwich,120,3,229,108
edited2370293.jpg,256,256,garlic bread,109,1,256,256
edited1732918.jpg,256,256,ice cream,23,1,256,247
edited2325377.jpg,256,256,mac and cheese,1,2,256,256
edited1765396.jpg,256,256,omellete,5,99,256,256
edited2631819.jpg,256,256,garlic bread,15,14,256,249
edited2406476.jpg,256,256,french fries,8,7,256,256
editedimages - 2021-01-13T122811.177.jpg,256,256,rice,83,127,173,255
editedimages - 2021-01-13T122811.177.jpg,256,256,rice,174,3,254,120
edited1938980.jpg,256,256,omellete,1,1,254,254
edited2138079.jpg,256,256,donut,42,19,107,85
edited2138079.jpg,256,256,donut,189,93,255,164
edited2138079.jpg,256,256,donut,109,154,180,234
edited2138079.jpg,256,256,donut,34,160,103,231
edited2138079.jpg,256,256,donut,177,21,256,89
edited2399257.jpg,256,256,garlic bread,17,107,85,208
edited2399257.jpg,256,256,garlic bread,122,103,194,212
edited2276532.jpg,256,256,donut,129,144,204,202
edited2276532.jpg,256,256,donut,39,196,124,247
edited2249869.jpg,256,256,ice cream,2,12,256,212
edited1507114.jpg,256,256,donut,33,95,83,145
edited1507114.jpg,256,256,donut,133,102,187,149
editedimages - 2021-01-13T122736.371.jpg,256,256,rice,1,2,225,256
edited1903648.jpg,256,256,cake,2,47,256,256
edited1937605.jpg,256,256,mac and cheese,7,11,248,217
edited1843847.jpg,256,256,omellete,2,5,256,254
edited1962995.jpg,256,256,ice cream,3,60,100,183
edited1962995.jpg,256,256,ice cream,165,68,256,180
editedimages - 2021-01-13T122726.470.jpg,256,256,rice,13,43,207,156
edited2402178.jpg,256,256,garlic bread,26,21,233,222
edited2672237.jpg,256,256,french fries,1,1,256,256
edited2247766.jpg,256,256,cake,1,2,256,234
edited2 (44).jpg,256,256,apple,88,39,189,197
images (39).jpg,183,275,sandwich,12,72,183,162
edited2244538.jpg,256,256,omellete,1,31,256,256
edited2024937.jpg,256,256,ice cream,32,1,212,197
editedimages - 2021-01-13T122747.601.jpg,256,256,rice,1,2,237,256
editedimages - 2021-01-13T122808.047.jpg,256,256,rice,35,36,229,232
edited2221588.jpg,256,256,ice cream,42,4,219,256
edited1792667.jpg,256,256,ice cream,49,18,171,197
edited2262956.jpg,256,256,french fries,28,91,256,256
edited2288879.jpg,256,256,mac and cheese,16,14,246,256
edited1949443.jpg,256,256,donut,80,54,192,145
edited2 (47).jpg,256,256,apple,96,41,179,172
edited2315325.jpg,256,256,french fries,1,1,256,256
images - 2021-01-15T124210.007.jpg,225,225,sandwich,84,19,185,155
editedimages - 2021-01-13T122738.898.jpg,256,256,rice,55,25,256,181
images - 2021-01-15T124140.724.jpg,260,194,sandwich,28,14,210,156
images (55).jpg,327,154,sandwich,139,28,217,134
edited2119360.jpg,256,256,donut,1,2,142,164
edited2223687.jpg,256,256,mac and cheese,5,17,245,220
editedimages - 2021-01-13T122800.546.jpg,256,256,rice,12,16,256,231
edited1701177.jpg,256,256,omellete,30,50,255,256
edited2313988.jpg,256,256,omellete,76,39,256,253
edited1856939.jpg,256,256,cake,1,27,208,225
images (24).jpg,199,253,sandwich,41,85,192,215
edited1 (38).jpg,256,256,apple,100,68,177,186
edited2378561.jpg,256,256,mac and cheese,28,27,230,234
edited2056206.jpg,256,256,donut,52,101,245,248
edited2164788.jpg,256,256,mac and cheese,4,17,256,228
edited2106964.jpg,256,256,donut,124,132,256,256
edited2106964.jpg,256,256,donut,124,47,238,128
edited2196244.jpg,256,256,ice cream,123,98,254,234
edited2479034.jpg,256,256,french fries,2,17,256,256
edited1726124.jpg,256,256,mac and cheese,30,30,239,227
edited2598673.jpg,256,256,garlic bread,11,74,217,214
editedimages - 2021-01-13T122815.699.jpg,256,256,rice,1,63,256,249
edited2185270.jpg,256,256,donut,25,37,256,224
edited1834784.jpg,256,256,ice cream,1,64,256,256
edited2 (8).jpg,256,256,apple,89,52,186,208
edited2055446.jpg,256,256,donut,36,4,256,151
edited2068514.jpg,256,256,mac and cheese,1,11,255,203
edited2239352.jpg,256,256,french fries,1,20,256,256
edited1 (59).jpg,256,256,apple,100,1,185,162
edited2150621.jpg,256,256,cake,18,12,249,196
images (47).jpg,301,167,sandwich,42,53,275,163
edited2079357.jpg,256,256,ice cream,12,36,256,241
images - 2021-01-15T124144.830.jpg,263,192,sandwich,80,1,263,83
edited2565707.jpg,256,256,french fries,1,1,256,256
edited1730764.jpg,256,256,mac and cheese,2,49,127,126
editedimages - 2021-01-13T122742.831.jpg,256,256,rice,14,75,239,207
edited1698444.jpg,256,256,omellete,10,91,256,256
edited1702242.jpg,256,256,donut,93,199,124,225
edited1702242.jpg,256,256,donut,171,154,210,184
edited1702242.jpg,256,256,donut,47,174,79,193
editedimages - 2021-01-13T122733.177.jpg,256,256,rice,15,54,162,204
edited2185819.jpg,256,256,garlic bread,68,11,256,248
edited2586818.jpg,256,256,french fries,30,1,256,256
edited1486203.jpg,256,256,donut,144,121,256,256
edited1486203.jpg,256,256,donut,5,62,127,126
edited1486203.jpg,256,256,donut,120,1,196,37
edited2 (14).jpg,256,256,apple,90,8,189,202
edited2370084.jpg,256,256,french fries,17,22,244,256
edited1975702.jpg,256,256,ice cream,21,32,234,231
images (8).jpg,183,275,sandwich,115,100,163,182
edited1889902.jpg,256,256,donut,41,63,95,138
edited1889902.jpg,256,256,donut,146,66,200,137
edited2223195.jpg,256,256,omellete,1,109,256,256
editedimages - 2021-01-13T122732.379.jpg,256,256,rice,55,17,256,180
edited1 (58).jpg,256,256,apple,92,11,181,165
editedimages - 2021-01-13T122818.215.jpg,256,256,rice,1,37,256,246
edited2286153.jpg,256,256,garlic bread,1,1,256,256
edited1872011.jpg,256,256,cake,124,11,227,141
edited2100376.jpg,256,256,omellete,1,54,199,249
edited1702581.jpg,256,256,omellete,24,67,227,207
edited1758932.jpg,256,256,ice cream,1,1,254,254
edited2085711.jpg,256,256,omellete,62,27,207,253
images (62).jpg,311,162,sandwich,32,6,264,130
edited1789728.jpg,256,256,ice cream,23,24,224,234
editedimages - 2021-01-13T122727.457.jpg,256,256,rice,57,22,256,256
edited3 (28).jpg,256,256,apple,110,12,227,168
edited2237104.jpg,256,256,ice cream,12,9,237,248
edited1 (42).jpg,256,256,apple,96,11,200,197
edited2081062.jpg,256,256,omellete,23,85,233,217
edited2320817.jpg,256,256,omellete,117,30,256,148
edited2226840.jpg,256,256,cake,24,26,241,255
edited2 (3).jpg,256,256,apple,103,37,200,202
images - 2021-01-15T124138.388.jpg,225,224,sandwich,11,37,198,224
edited2Q__ (7).jpg,256,256,rice,3,1,256,256
edited2405266.jpg,256,256,cake,13,10,255,220
edited2072503.jpg,256,256,mac and cheese,1,60,255,256
images - 2021-01-15T124147.372.jpg,256,190,sandwich,86,59,251,178
images - 2021-01-15T124210.227.jpg,275,183,sandwich,43,12,236,134
edited1838254.jpg,256,256,cake,36,1,194,192
edited1896617.jpg,256,256,ice cream,34,10,154,130
edited1896617.jpg,256,256,ice cream,7,145,122,244
edited2213639.jpg,256,256,garlic bread,85,57,164,155
editedimages - 2021-01-13T122722.227.jpg,256,256,rice,38,24,238,231
edited2170394.jpg,256,256,mac and cheese,2,2,256,256
edited2532968.jpg,256,256,garlic bread,32,14,220,207
edited2064526.jpg,256,256,ice cream,17,4,242,237
edited2359267.jpg,256,256,cake,44,24,239,207
edited1896407.jpg,256,256,omellete,3,82,256,256
edited1873884.jpg,256,256,mac and cheese,17,59,213,174
images - 2021-01-15T124135.922.jpg,217,232,sandwich,1,15,216,124
edited2664896.jpg,256,256,french fries,6,12,256,249
editedimages - 2021-01-13T122804.388.jpg,256,256,rice,15,1,256,253
edited2036922.jpg,256,256,cake,21,4,212,121
edited2445563.jpg,256,256,garlic bread,71,42,256,256
edited3 (4).jpg,256,256,apple,79,1,201,189
edited2365321.jpg,256,256,cake,4,2,214,222
edited1649297.jpg,256,256,donut,36,155,152,256
edited2422657.jpg,256,256,mac and cheese,24,28,256,225
images (51).jpg,189,266,sandwich,3,111,153,217
edited1 (40).jpg,256,256,apple,91,61,182,209
edited1 (57).jpg,256,256,apple,95,34,185,193
edited2016581.jpg,256,256,omellete,17,85,110,252
editedimages - 2021-01-13T122754.842.jpg,256,256,rice,17,47,223,256
edited1988687.jpg,256,256,ice cream,5,16,256,256
edited2098437.jpg,256,256,garlic bread,23,98,256,256
edited1 (43).jpg,256,256,apple,111,51,182,176
edited2295315.jpg,256,256,cake,1,7,256,253
images (25).jpg,285,177,sandwich,44,8,247,112
edited1932818.jpg,256,256,ice cream,4,3,256,256
edited1756584.jpg,256,256,ice cream,6,1,256,246
editedimages - 2021-01-13T122736.652.jpg,256,256,rice,1,37,235,233
edited2575055.jpg,256,256,garlic bread,5,5,247,233
edited1938583.jpg,256,256,mac and cheese,1,1,256,256
edited1658464.jpg,256,256,donut,1,79,243,210
edited2129342.jpg,256,256,garlic bread,64,2,197,256
images - 2021-01-15T124205.028.jpg,203,248,sandwich,31,87,175,158
edited1843540.jpg,256,256,cake,165,89,245,151
edited2391342.jpg,256,256,mac and cheese,1,1,256,256
editedimages - 2021-01-13T122736.060.jpg,256,256,rice,41,12,217,214
edited1978490.jpg,256,256,cake,27,17,232,217
edited1 (44).jpg,256,256,apple,99,26,180,184
edited2223674.jpg,256,256,donut,36,205,134,250
edited2223674.jpg,256,256,donut,80,114,150,177
edited9k_ (11).jpg,256,256,rice,5,8,256,233
images - 2021-01-15T124209.732.jpg,263,192,sandwich,17,25,263,112
edited2528860.jpg,256,256,french fries,26,20,205,231
edited2469756.jpg,256,256,garlic bread,4,38,256,253
images - 2021-01-15T124140.916.jpg,263,192,sandwich,35,13,263,148
edited1825727.jpg,256,256,donut,32,1,151,131
edited1839945.jpg,256,256,omellete,41,94,222,251
edited2683704.jpg,256,256,garlic bread,98,42,228,242
edited2 (31).jpg,256,256,apple,98,61,193,206
edited2122617.jpg,256,256,cake,1,1,249,179
edited1 (82).jpg,256,256,apple,100,44,164,167
edited2293386.jpg,256,256,donut,87,167,191,221
edited2293386.jpg,256,256,donut,170,61,256,112
edited2293386.jpg,256,256,donut,4,62,78,111
edited3 (41).jpg,256,256,apple,73,54,190,199
edited2 (35).jpg,256,256,apple,93,25,195,222
edited1752725.jpg,256,256,omellete,15,52,138,199
editedimages - 2021-01-13T122725.047.jpg,256,256,rice,22,24,235,237
edited2287380.jpg,256,256,cake,23,7,256,243
edited2 (2).jpg,256,256,apple,101,75,174,193
edited1804130.jpg,256,256,mac and cheese,18,103,256,207
editedimages - 2021-01-13T122823.745.jpg,256,256,rice,50,38,190,225
edited2294997.jpg,256,256,garlic bread,35,110,197,256
edited1931443.jpg,256,256,ice cream,30,7,225,202
edited2064259.jpg,256,256,mac and cheese,3,36,253,181
edited9k_ (7).jpg,256,256,rice,57,42,209,217
edited2464506.jpg,256,256,mac and cheese,5,14,256,220
edited2020772.jpg,256,256,omellete,28,64,222,201
edited2794957.jpg,256,256,garlic bread,1,13,199,256
edited2212209.jpg,256,256,donut,18,85,165,247
edited1 (48).jpg,256,256,apple,96,27,174,172
edited1890538.jpg,256,256,omellete,1,31,121,209
edited2137477.jpg,256,256,ice cream,81,16,181,226
edited2039682.jpg,256,256,omellete,8,14,138,256
edited2157238.jpg,256,256,ice cream,68,2,209,256
edited2181185.jpg,256,256,mac and cheese,50,66,188,174
edited2390644.jpg,256,256,mac and cheese,2,3,224,214
edited2185186.jpg,256,256,cake,28,3,209,233
edited1923330.jpg,256,256,ice cream,3,2,256,256
edited2159463.jpg,256,256,mac and cheese,5,48,256,241
edited1817136.jpg,256,256,donut,108,162,192,254
edited1817136.jpg,256,256,donut,44,90,112,151
edited1817136.jpg,256,256,donut,179,101,234,151
edited1817136.jpg,256,256,donut,214,47,253,82
edited2418389.jpg,256,256,garlic bread,3,1,256,256
edited2081789.jpg,256,256,ice cream,1,19,256,256
edited1813703.jpg,256,256,cake,17,6,226,242
edited3 (30).jpg,256,256,apple,103,14,217,165
edited3 (45).jpg,256,256,apple,55,33,213,212
editedimages - 2021-01-13T122821.778.jpg,256,256,rice,2,4,256,194
editedimages - 2021-01-13T122727.909.jpg,256,256,rice,5,2,256,256
edited2169627.jpg,256,256,mac and cheese,9,34,241,219
edited2170282.jpg,256,256,mac and cheese,1,1,256,256
edited2371522.jpg,256,256,garlic bread,3,11,191,187
edited1579093.jpg,256,256,donut,35,123,172,238
edited1852541.jpg,256,256,ice cream,15,14,227,206
edited2329021.jpg,256,256,mac and cheese,17,53,256,246
edited2214673.jpg,256,256,french fries,1,1,256,256
images (40).jpg,283,178,sandwich,103,19,264,155
edited1 (41).jpg,256,256,apple,96,13,199,199
edited2322467.jpg,256,256,donut,31,73,119,156
edited2322467.jpg,256,256,donut,199,1,256,76
edited2322467.jpg,256,256,donut,110,162,209,251
edited3 (25).jpg,256,256,apple,59,17,201,188
edited2068689.jpg,256,256,ice cream,36,21,210,227
edited1889521.jpg,256,256,cake,3,18,218,157
images - 2021-01-15T124132.481.jpg,276,183,sandwich,89,33,195,165
edited2060574.jpg,256,256,donut,94,94,147,124
edited2060574.jpg,256,256,donut,145,153,215,188
edited1704205.jpg,256,256,mac and cheese,1,1,256,164
edited1937324.jpg,256,256,cake,44,12,221,226
edited2345519.jpg,256,256,french fries,1,89,121,237
edited1954234.jpg,256,256,donut,145,98,249,196
edited1954234.jpg,256,256,donut,25,76,140,181
edited1895732.jpg,256,256,ice cream,5,27,256,202
images - 2021-01-15T124147.388.jpg,197,256,sandwich,105,122,197,209
images - 2021-01-15T124147.388.jpg,197,256,sandwich,1,46,93,124
editedimages - 2021-01-13T122814.644.jpg,256,256,rice,1,1,254,254
images - 2021-01-15T124135.794.jpg,301,167,sandwich,5,53,160,167
images - 2021-01-15T124135.794.jpg,301,167,sandwich,188,20,274,157
editedimages - 2021-01-13T122728.153.jpg,256,256,rice,59,41,175,167
edited1721833.jpg,256,256,omellete,2,46,256,256
edited2226454.jpg,256,256,ice cream,38,47,246,217
edited2154538.jpg,256,256,french fries,1,1,256,256
edited3 (39).jpg,256,256,apple,49,13,202,224
images - 2021-01-15T124134.108.jpg,270,186,sandwich,51,31,270,158
edited2408294.jpg,256,256,mac and cheese,1,1,256,256
edited2446658.jpg,256,256,mac and cheese,1,1,256,256
edited2385546.jpg,256,256,garlic bread,65,145,201,207
editedimages - 2021-01-13T122737.394.jpg,256,256,rice,31,61,213,189
edited2224231.jpg,256,256,french fries,1,7,256,256
edited2218833.jpg,256,256,mac and cheese,38,74,230,178
editedimages - 2021-01-13T122805.941.jpg,256,256,rice,12,62,256,165
edited1509832.jpg,256,256,donut,1,1,150,167
edited2048075.jpg,256,256,omellete,12,131,234,256
edited2605520.jpg,256,256,garlic bread,15,36,256,228
9k_ (1).jpg,100,100,sandwich,1,26,79,65
edited1752101.jpg,256,256,mac and cheese,2,88,254,191
edited2301514.jpg,256,256,omellete,10,13,114,249
9k_ (11).jpg,279,180,sandwich,1,2,279,180
editedimages - 2021-01-13T122804.699.jpg,256,256,rice,47,78,206,210
editedimages - 2021-01-13T122738.411.jpg,256,256,rice,38,78,135,225
editedimages - 2021-01-13T122738.411.jpg,256,256,rice,138,4,228,124
edited2158927.jpg,256,256,cake,2,24,225,253
edited2369737.jpg,256,256,garlic bread,20,95,240,181
edited1752577.jpg,256,256,ice cream,45,7,256,256
edited2445782.jpg,256,256,cake,17,1,256,256
edited2208648.jpg,256,256,french fries,15,1,256,256
edited1923317.jpg,256,256,mac and cheese,5,52,256,204
edited2389101.jpg,256,256,french fries,1,4,256,256
edited3 (47).jpg,256,256,apple,45,22,215,227
edited1904925.jpg,256,256,mac and cheese,3,24,256,192
edited2208341.jpg,256,256,donut,14,23,123,128
edited2208341.jpg,256,256,donut,83,182,135,240
edited2208341.jpg,256,256,donut,171,42,211,79
edited2272764.jpg,256,256,mac and cheese,1,41,256,223
editedimages - 2021-01-13T122820.987.jpg,256,256,rice,1,41,190,227
edited3 (14).jpg,256,256,apple,61,33,214,239
edited2365284.jpg,256,256,cake,22,21,226,192
edited1997821.jpg,256,256,ice cream,1,7,210,212
edited2185299.jpg,256,256,donut,9,51,253,222
images - 2021-01-15T124140.424.jpg,275,183,sandwich,50,31,227,125
edited3 (17).jpg,256,256,apple,75,5,186,151
edited2081798.jpg,256,256,ice cream,35,12,256,256
edited2219197.jpg,256,256,french fries,1,1,256,256
edited2367628.jpg,256,256,omellete,101,42,255,221
edited2220277.jpg,256,256,ice cream,218,22,254,80
edited2220277.jpg,256,256,ice cream,164,122,242,221
edited1519561.jpg,256,256,donut,143,104,256,256
edited1519561.jpg,256,256,donut,1,120,120,256
edited2104947.jpg,256,256,omellete,82,167,194,241
images (69).jpg,259,194,sandwich,118,79,196,155
edited1910934.jpg,256,256,omellete,45,24,231,249
edited2136027.jpg,256,256,omellete,12,81,224,207
edited2249089.jpg,256,256,french fries,1,1,256,256
editedimages - 2021-01-13T122819.987.jpg,256,256,rice,4,2,256,256
edited2371709.jpg,256,256,cake,11,2,256,256
editedimages - 2021-01-13T122757.385.jpg,256,256,rice,12,62,148,227
edited1782715.jpg,256,256,cake,77,32,174,151
editedimages - 2021-01-13T122748.109.jpg,256,256,rice,5,47,252,197
edited1841618.jpg,256,256,donut,107,106,189,243
images (11).jpg,186,270,sandwich,16,29,186,245
edited2062498.jpg,256,256,ice cream,1,2,254,252
edited2169819.jpg,256,256,mac and cheese,25,61,179,211
editedimages - 2021-01-13T122744.479.jpg,256,256,rice,1,61,254,231
editedimages - 2021-01-13T122806.777.jpg,256,256,rice,34,37,171,229
edited2422725.jpg,256,256,cake,1,7,256,236
edited1 (22).jpg,256,256,apple,96,17,201,193
edited2161233.jpg,256,256,mac and cheese,5,21,256,256
images - 2021-01-15T124133.050.jpg,184,274,sandwich,16,31,164,132
edited2596038.jpg,256,256,french fries,3,67,256,214
edited2023467.jpg,256,256,ice cream,9,86,133,211
edited1855579.jpg,256,256,donut,1,29,133,143
edited2262602.jpg,256,256,omellete,4,103,256,246
edited2838576.jpg,256,256,garlic bread,1,87,256,256
edited1810317.jpg,256,256,ice cream,20,1,197,256
edited3 (3).jpg,256,256,apple,65,26,193,214
edited2052915.jpg,256,256,cake,41,24,219,174
edited1664703.jpg,256,256,omellete,15,73,241,221
images (38).jpg,275,183,sandwich,45,1,246,89
edited2249019.jpg,256,256,omellete,2,21,256,256
edited1910824.jpg,256,256,ice cream,107,31,256,256
images - 2021-01-15T124139.348.jpg,327,154,sandwich,38,1,327,143
edited2236255.jpg,256,256,omellete,24,9,237,205
images - 2021-01-15T124133.444.jpg,183,275,sandwich,19,76,174,225
edited3 (2).jpg,256,256,apple,58,19,211,251
edited2085765.jpg,256,256,omellete,12,35,256,147
edited2811870.jpg,256,256,garlic bread,55,41,199,196
edited2250693.jpg,256,256,french fries,1,1,256,256
edited2143634.jpg,256,256,ice cream,27,1,230,192
edited2325575.jpg,256,256,french fries,40,20,252,236
edited1706123.jpg,256,256,omellete,35,101,220,230
edited3 (8).jpg,256,256,apple,87,15,203,174
edited2507866.jpg,256,256,french fries,5,3,256,256
edited2483067.jpg,256,256,french fries,70,35,240,191
edited2298781.jpg,256,256,donut,37,146,245,256
edited2231631.jpg,256,256,garlic bread,52,11,256,119
edited2169665.jpg,256,256,french fries,60,22,207,227
edited1806344.jpg,256,256,omellete,4,109,256,250
edited2805798.jpg,256,256,garlic bread,16,4,108,155
edited2245283.jpg,256,256,omellete,1,74,225,247
edited1774439.jpg,256,256,ice cream,16,25,254,255
images - 2021-01-15T124207.140.jpg,265,190,sandwich,37,6,191,104
edited2155154.jpg,256,256,garlic bread,1,61,256,172
edited2552787.jpg,256,256,garlic bread,14,30,142,172
edited2237942.jpg,256,256,garlic bread,1,4,256,256
edited2313437.jpg,256,256,donut,35,1,212,237
editedimages - 2021-01-13T122735.184.jpg,256,256,rice,48,18,210,213
edited2655128.jpg,256,256,garlic bread,80,84,233,185
edited3 (6).jpg,256,256,apple,40,30,199,255
edited1844533.jpg,256,256,donut,40,84,256,240
edited2676252.jpg,256,256,french fries,5,23,225,256
edited2183551.jpg,256,256,ice cream,16,1,229,221
edited2343991.jpg,256,256,french fries,6,25,235,243
images - 2021-01-15T124134.210.jpg,225,225,sandwich,5,26,225,175
editedimages - 2021-01-13T122724.091.jpg,256,256,rice,2,6,256,256
edited2225296.jpg,256,256,ice cream,1,5,221,256
edited1796287.jpg,256,256,mac and cheese,21,21,233,232
edited2164163.jpg,256,256,donut,53,61,108,123
edited2164163.jpg,256,256,donut,168,57,233,113
edited1825988.jpg,256,256,mac and cheese,15,12,256,219
edited1 (69).jpg,256,256,apple,98,42,173,196
edited2118500.jpg,256,256,omellete,37,162,254,241
edited2298765.jpg,256,256,french fries,1,31,256,256
edited2168761.jpg,256,256,omellete,1,6,194,124
edited2592571.jpg,256,256,french fries,1,1,256,256
edited2426130.jpg,256,256,mac and cheese,55,36,224,178
edited2222589.jpg,256,256,donut,84,4,192,47
edited1816175.jpg,256,256,omellete,90,50,245,245
edited2 (42).jpg,256,256,apple,90,44,196,197
edited2200585.jpg,256,256,french fries,1,7,256,256
9k_ (7).jpg,275,183,sandwich,81,7,274,174
edited2817995.jpg,256,256,garlic bread,158,56,241,232
edited1714449.jpg,256,256,mac and cheese,11,1,256,254
edited1780416.jpg,256,256,cake,1,1,256,256
edited1859920.jpg,256,256,mac and cheese,2,24,256,236
edited2180277.jpg,256,256,donut,124,104,207,169
edited2180277.jpg,256,256,donut,33,103,104,165
edited2180277.jpg,256,256,donut,55,47,110,89
edited2180277.jpg,256,256,donut,127,53,187,94
edited2072360.jpg,256,256,mac and cheese,1,4,255,243
edited1897655.jpg,256,256,ice cream,58,4,223,141
edited9k_ (9).jpg,256,256,rice,20,57,162,227
edited2070860.jpg,256,256,omellete,62,1,256,256
edited2409693.jpg,256,256,cake,1,1,256,256
editedimages - 2021-01-13T122750.978.jpg,256,256,rice,21,53,83,136
editedimages - 2021-01-13T122750.978.jpg,256,256,rice,149,172,222,253
edited2208553.jpg,256,256,garlic bread,77,124,217,239
edited2208553.jpg,256,256,garlic bread,56,6,187,41
edited2161634.jpg,256,256,ice cream,2,7,256,244
edited2005858.jpg,256,256,ice cream,93,114,183,190
edited2005858.jpg,256,256,ice cream,185,35,256,109
edited2005858.jpg,256,256,ice cream,1,34,88,111
edited1962285.jpg,256,256,mac and cheese,3,3,229,216
edited2406472.jpg,256,256,garlic bread,23,23,239,234
images (74).jpg,270,187,sandwich,16,9,258,108
edited1924865.jpg,256,256,cake,4,9,230,242
images (59).jpg,100,100,sandwich,31,50,80,84
images (59).jpg,100,100,sandwich,2,12,46,48
edited1 (46).jpg,256,256,apple,84,54,165,196
edited2384515.jpg,256,256,mac and cheese,22,24,256,227
edited2352223.jpg,256,256,garlic bread,18,7,84,218
edited2352223.jpg,256,256,garlic bread,112,11,172,241
editedimages - 2021-01-13T122722.448.jpg,256,256,rice,1,4,255,256
edited2309282.jpg,256,256,omellete,10,56,256,178
edited2167465.jpg,256,256,ice cream,15,6,234,256
edited2048180.jpg,256,256,mac and cheese,64,79,157,195
edited2146774.jpg,256,256,mac and cheese,1,51,256,163
images - 2021-01-15T124206.890.jpg,225,225,sandwich,1,67,78,205
edited2449370.jpg,256,256,french fries,1,1,256,256
edited2705078.jpg,256,256,french fries,34,27,140,190
edited2705078.jpg,256,256,french fries,200,57,256,249
edited1 (72).jpg,256,256,apple,87,24,177,186
edited1710975.jpg,256,256,donut,31,165,105,237
edited1711153.jpg,256,256,omellete,2,78,256,239
edited9k_ (8).jpg,256,256,rice,2,1,256,256
edited1825419.jpg,256,256,ice cream,7,5,256,242
edited2460493.jpg,256,256,garlic bread,102,24,248,197
editedimages - 2021-01-13T122734.094.jpg,256,256,rice,32,12,231,214
edited2040874.jpg,256,256,ice cream,6,6,244,251
edited2312839.jpg,256,256,garlic bread,32,105,180,227
edited1774174.jpg,256,256,ice cream,43,34,206,193
edited2 (34).jpg,256,256,apple,80,36,184,205
edited2 (30).jpg,256,256,apple,107,73,191,210
edited3 (53).jpg,256,256,apple,44,2,218,255
edited2472499.jpg,256,256,french fries,11,6,256,247
edited2252757.jpg,256,256,ice cream,65,10,256,216
edited2014741.jpg,256,256,cake,6,2,254,256
images - 2021-01-15T124207.144.jpg,224,224,sandwich,40,24,224,177
editedimages - 2021-01-13T122819.425.jpg,256,256,rice,8,162,254,256
editedimages - 2021-01-13T122819.425.jpg,256,256,rice,8,55,207,123
edited2 (1).jpg,256,256,apple,99,69,174,195
edited2860917.jpg,256,256,garlic bread,68,92,217,224
edited2275897.jpg,256,256,ice cream,40,27,248,253
edited2649729.jpg,256,256,french fries,21,16,251,237
edited2303073.jpg,256,256,french fries,1,5,256,256
edited3 (36).jpg,256,256,apple,61,21,209,221
images (57).jpg,300,168,sandwich,105,1,300,163
edited2165594.jpg,256,256,cake,12,71,147,204
edited2285155.jpg,256,256,cake,1,2,256,228
edited2132966.jpg,256,256,ice cream,1,100,63,184
edited2132966.jpg,256,256,ice cream,134,97,204,191
edited1 (26).jpg,256,256,apple,89,58,160,196
edited2560082.jpg,256,256,garlic bread,6,40,256,215
edited1978624.jpg,256,256,omellete,2,3,256,256
edited1826979.jpg,256,256,mac and cheese,38,1,210,206
edited1705674.jpg,256,256,mac and cheese,12,74,256,189
edited1933377.jpg,256,256,mac and cheese,1,1,256,256
edited1916547.jpg,256,256,ice cream,5,4,256,237
edited2200220.jpg,256,256,ice cream,131,7,256,256
edited2200220.jpg,256,256,ice cream,9,13,113,254
edited2104935.jpg,256,256,donut,144,27,213,69
edited2104935.jpg,256,256,donut,170,99,250,163
edited2104935.jpg,256,256,donut,6,93,85,162
edited2323442.jpg,256,256,cake,1,4,256,253
images - 2021-01-15T124137.108.jpg,314,161,sandwich,102,1,273,144
images (67).jpg,183,275,sandwich,3,84,183,176
edited2017736.jpg,256,256,donut,115,142,237,256
edited2182834.jpg,256,256,french fries,1,1,256,256
edited1815201.jpg,256,256,cake,12,47,234,226
edited1854234.jpg,256,256,ice cream,7,37,240,191
edited1581488.jpg,256,256,donut,61,127,116,191
edited1581488.jpg,256,256,donut,35,4,99,70
edited1581488.jpg,256,256,donut,160,5,209,65
edited1581488.jpg,256,256,donut,139,190,189,249
edited1581488.jpg,256,256,donut,1,191,40,255
edited1581488.jpg,256,256,donut,160,119,222,184
edited1955977.jpg,256,256,omellete,7,38,256,256
edited1792554.jpg,256,256,ice cream,42,22,222,187
edited2230663.jpg,256,256,garlic bread,1,46,82,127
edited2280110.jpg,256,256,ice cream,13,20,251,256
editedimages - 2021-01-13T122735.495.jpg,256,256,rice,15,41,248,207
images (19).jpg,259,194,sandwich,31,14,143,130
images - 2021-01-15T124134.943.jpg,129,389,sandwich,1,239,129,343
images - 2021-01-15T124134.943.jpg,129,389,sandwich,3,32,129,150
edited1999622.jpg,256,256,cake,1,4,256,256
edited2001109.jpg,256,256,ice cream,16,7,204,216
edited2091911.jpg,256,256,donut,54,141,113,219
edited2091911.jpg,256,256,donut,140,168,197,236
edited2316420.jpg,256,256,omellete,26,62,219,190
editedimages - 2021-01-13T122735.713.jpg,256,256,rice,16,39,256,221
edited2052811.jpg,256,256,ice cream,30,52,239,256
edited2166009.jpg,256,256,donut,112,54,254,225
edited2403239.jpg,256,256,cake,41,24,239,256
edited2005848.jpg,256,256,ice cream,1,1,256,256
edited2179708.jpg,256,256,ice cream,19,2,255,186
images - 2021-01-15T124145.464.jpg,275,183,sandwich,42,19,194,144
edited2878145.jpg,256,256,garlic bread,22,115,225,251
edited2179784.jpg,256,256,donut,173,56,244,178
edited2867220.jpg,256,256,garlic bread,14,3,124,220
edited2464961.jpg,256,256,french fries,9,11,256,256
edited2269039.jpg,256,256,french fries,1,1,256,256
edited2408297.jpg,256,256,garlic bread,2,72,178,233
edited2634202.jpg,256,256,french fries,11,12,256,256
edited1759344.jpg,256,256,omellete,32,22,222,256
editedimages - 2021-01-13T122741.778.jpg,256,256,rice,42,64,175,236
edited2317790.jpg,256,256,omellete,33,69,219,220
edited1995132.jpg,256,256,cake,42,51,250,202
edited3 (18).jpg,256,256,apple,69,30,191,166
edited2388336.jpg,256,256,garlic bread,9,1,200,241
edited1878618.jpg,256,256,omellete,16,4,234,242
edited2078213.jpg,256,256,donut,54,101,196,237
edited1768054.jpg,256,256,omellete,6,95,256,239
edited2443423.jpg,256,256,garlic bread,2,23,155,209
images - 2021-01-15T124141.174.jpg,275,183,sandwich,7,42,154,139
edited2431708.jpg,256,256,mac and cheese,70,69,205,172
edited2234609.jpg,256,256,garlic bread,4,7,226,256
edited2286685.jpg,256,256,mac and cheese,1,1,256,256
images - 2021-01-15T124203.212.jpg,248,203,sandwich,130,40,182,189
edited2411016.jpg,256,256,cake,34,38,252,173
edited2868320.jpg,256,256,garlic bread,50,43,256,200
edited2048548.jpg,256,256,donut,20,108,252,256
edited1941692.jpg,256,256,omellete,1,135,254,256
edited2083124.jpg,256,256,cake,124,98,244,214
edited2 (22).jpg,256,256,apple,92,50,191,217
editedimages - 2021-01-13T122755.862.jpg,256,256,rice,27,63,220,187
images (76).jpg,300,168,sandwich,49,3,193,137
edited1945884.jpg,256,256,omellete,1,29,256,256
edited1780536.jpg,256,256,ice cream,121,4,256,230
edited3 (46).jpg,256,256,apple,49,26,211,216
edited2161958.jpg,256,256,omellete,30,76,240,201
edited1765680.jpg,256,256,omellete,7,46,227,240
images (37).jpg,183,275,sandwich,1,43,134,154
edited2267564.jpg,256,256,omellete,70,90,130,194
edited1871758.jpg,256,256,mac and cheese,15,6,256,233
edited1894449.jpg,256,256,omellete,14,30,237,244
edited1684672.jpg,256,256,mac and cheese,1,3,243,231
edited1684672.jpg,256,256,mac and cheese,7,36,214,194
edited2035230.jpg,256,256,ice cream,50,12,244,256
edited2299204.jpg,256,256,garlic bread,14,72,155,203
edited1819214.jpg,256,256,donut,1,76,169,256
edited1 (68).jpg,256,256,apple,107,48,169,166
edited2124212.jpg,256,256,omellete,1,19,197,197
editedimages - 2021-01-13T122823.014.jpg,256,256,rice,19,132,244,252
edited2345942.jpg,256,256,garlic bread,1,64,256,256
edited2239316.jpg,256,256,french fries,31,69,233,234
images - 2021-01-15T124142.623.jpg,194,259,sandwich,1,49,190,154
edited2160438.jpg,256,256,cake,1,1,252,252
edited2303865.jpg,256,256,garlic bread,1,12,256,256
edited2212633.jpg,256,256,french fries,7,5,256,227
edited1629773.jpg,256,256,donut,68,123,193,254
edited1629773.jpg,256,256,donut,178,15,256,117
edited1629773.jpg,256,256,donut,1,19,69,122
edited2528360.jpg,256,256,french fries,1,2,256,256
edited1755882.jpg,256,256,donut,1,42,210,246
edited2294886.jpg,256,256,garlic bread,1,1,155,231
edited2079712.jpg,256,256,donut,6,122,249,256
edited2050952.jpg,256,256,cake,45,4,170,187
edited3 (5).jpg,256,256,apple,57,23,184,222
edited2262592.jpg,256,256,garlic bread,3,14,256,160
edited2282705.jpg,256,256,omellete,19,66,256,256
edited1834376.jpg,256,256,donut,1,47,124,171
edited2374428.jpg,256,256,mac and cheese,1,1,256,256
edited2269110.jpg,256,256,mac and cheese,1,2,256,256
edited2246387.jpg,256,256,french fries,1,13,256,256
edited1490892.jpg,256,256,donut,6,12,256,249
images - 2021-01-15T124144.554.jpg,275,184,sandwich,47,32,228,118
edited2147046.jpg,256,256,french fries,2,5,255,254
edited1864081.jpg,256,256,ice cream,1,15,215,256
edited2371507.jpg,256,256,french fries,1,3,256,247
editedimages - 2021-01-13T122822.108.jpg,256,256,rice,29,16,256,239
editedimages - 2021-01-13T122748.477.jpg,256,256,rice,1,4,228,256
editedimages - 2021-01-13T122812.853.jpg,256,256,rice,15,85,248,248
edited1 (77).jpg,256,256,apple,86,11,193,182
edited2046059.jpg,256,256,omellete,81,21,244,133
edited1724351.jpg,256,256,mac and cheese,1,76,254,216
edited2850275.jpg,256,256,garlic bread,20,12,86,158
images (75).jpg,259,194,sandwich,87,55,249,183
edited1987126.jpg,256,256,ice cream,11,40,244,248
edited1770967.jpg,256,256,ice cream,2,14,165,225
edited2 (18).jpg,256,256,apple,95,71,190,207
edited2102175.jpg,256,256,garlic bread,1,2,256,256
edited1874496.jpg,256,256,cake,5,29,256,231
edited2123683.jpg,256,256,garlic bread,38,19,227,235
edited1711323.jpg,256,256,ice cream,27,16,222,238
9k_ (6).jpg,300,168,sandwich,49,2,294,115
edited1775792.jpg,256,256,omellete,1,19,205,256
edited2133898.jpg,256,256,omellete,27,107,242,217
edited2388608.jpg,256,256,omellete,12,57,242,183
images - 2021-01-15T124132.162.jpg,192,262,sandwich,8,45,190,171
editedimages - 2021-01-13T122758.437.jpg,256,256,rice,36,33,220,227
images - 2021-01-15T124132.970.jpg,272,185,sandwich,1,55,97,115
images - 2021-01-15T124132.970.jpg,272,185,sandwich,182,60,272,113
edited2164787.jpg,256,256,donut,100,123,186,220
edited2164787.jpg,256,256,donut,111,17,197,110
images - 2021-01-15T124135.351.jpg,251,201,sandwich,33,2,242,136
edited2386582.jpg,256,256,omellete,42,20,209,117
edited2343238.jpg,256,256,mac and cheese,151,91,256,223
edited2606474.jpg,256,256,french fries,3,54,256,204
edited2092205.jpg,256,256,omellete,54,84,204,225
edited2149566.jpg,256,256,french fries,134,11,250,121
images - 2021-01-15T124210.072.jpg,275,183,sandwich,106,6,249,119
edited1797194.jpg,256,256,ice cream,56,126,168,242
edited1797194.jpg,256,256,ice cream,64,1,162,50
edited1 (89).jpg,256,256,apple,101,48,183,177
editedimages - 2021-01-13T122751.839.jpg,256,256,rice,35,94,220,214
editedimages - 2021-01-13T122727.199.jpg,256,256,rice,55,23,221,239
images - 2021-01-15T124145.391.jpg,275,183,sandwich,134,12,214,103
edited2244833.jpg,256,256,ice cream,30,27,233,230
editedimages - 2021-01-13T122750.747.jpg,256,256,rice,1,2,240,256
editedimages - 2021-01-13T122811.730.jpg,256,256,rice,19,25,237,209
edited2016768.jpg,256,256,donut,37,28,104,111
edited2016768.jpg,256,256,donut,171,113,237,194
editedimages - 2021-01-13T122745.121.jpg,256,256,rice,23,25,249,255
edited2213664.jpg,256,256,french fries,49,46,216,161
editedimages - 2021-01-13T122721.296.jpg,256,256,rice,38,39,253,237
edited2058270.jpg,256,256,donut,122,79,250,184
edited2058270.jpg,256,256,donut,20,1,127,75
edited1 (76).jpg,256,256,apple,93,26,199,199
edited2347914.jpg,256,256,cake,15,2,219,224
edited2217120.jpg,256,256,french fries,1,1,256,256
edited2422497.jpg,256,256,garlic bread,52,46,219,128
edited1838787.jpg,256,256,mac and cheese,1,67,256,222
images (21).jpg,259,194,sandwich,76,74,204,172
edited1721433.jpg,256,256,donut,165,146,256,256
images - 2021-01-15T124139.664.jpg,259,194,sandwich,70,5,250,178
edited3 (35).jpg,256,256,apple,82,56,203,207
edited1793242.jpg,256,256,omellete,1,2,256,256
edited1779883.jpg,256,256,ice cream,31,2,235,237
editedimages - 2021-01-13T122737.162.jpg,256,256,rice,32,84,234,256
edited1820233.jpg,256,256,donut,20,39,75,78
edited1954378.jpg,256,256,ice cream,34,18,157,154
images - 2021-01-15T124132.552.jpg,197,256,sandwich,45,131,169,212
images - 2021-01-15T124133.196.jpg,183,275,sandwich,52,30,183,240
images - 2021-01-15T124203.171.jpg,288,175,sandwich,18,9,220,146
edited1590095.jpg,256,256,donut,2,67,80,116
edited1590095.jpg,256,256,donut,104,87,179,142
edited1590095.jpg,256,256,donut,77,151,177,227
edited2837389.jpg,256,256,garlic bread,1,2,256,187
edited2195781.jpg,256,256,ice cream,1,4,256,256
9k_ (8).jpg,259,194,sandwich,33,7,237,107
edited1716109.jpg,256,256,omellete,35,80,222,171
edited2348229.jpg,256,256,french fries,1,7,256,256
edited2186089.jpg,256,256,omellete,41,72,159,216
edited1 (35).jpg,256,256,apple,109,47,198,191
edited1 (88).jpg,256,256,apple,98,56,173,176
edited1992427.jpg,256,256,omellete,3,2,256,176
edited1 (67).jpg,256,256,apple,82,15,169,159
edited2308136.jpg,256,256,cake,5,1,256,211
edited1 (86).jpg,256,256,apple,96,85,159,178
edited1855653.jpg,256,256,cake,1,1,256,234
edited2390632.jpg,256,256,mac and cheese,20,11,243,253
edited2512097.jpg,256,256,french fries,17,76,240,168
edited2143328.jpg,256,256,omellete,1,61,256,256
edited1980270.jpg,256,256,cake,8,25,256,204
edited2849109.jpg,256,256,garlic bread,1,31,256,226
edited1634605.jpg,256,256,donut,84,96,201,256
edited2122214.jpg,256,256,cake,2,10,248,233
edited1775643.jpg,256,256,omellete,25,82,256,167
edited1 (49).jpg,256,256,apple,100,61,166,182
edited2208840.jpg,256,256,mac and cheese,114,89,253,184
editedimages - 2021-01-13T122740.580.jpg,256,256,rice,35,24,256,243
editedimages - 2021-01-13T122730.901.jpg,256,256,rice,13,79,232,181
edited2104455.jpg,256,256,cake,1,14,256,231
edited2 (7).jpg,256,256,apple,91,49,182,203
edited1900399.jpg,256,256,donut,24,104,156,204
edited2132996.jpg,256,256,mac and cheese,1,23,256,256
edited2500727.jpg,256,256,garlic bread,37,14,234,255
edited2155429.jpg,256,256,ice cream,19,106,212,256
edited2346004.jpg,256,256,garlic bread,92,117,181,218
edited2346004.jpg,256,256,garlic bread,15,50,90,136
edited2346004.jpg,256,256,garlic bread,194,97,256,186
images - 2021-01-15T124136.099.jpg,259,194,sandwich,72,81,175,169
edited2249077.jpg,256,256,ice cream,65,12,220,142
edited1742067.jpg,256,256,mac and cheese,4,36,256,244
edited3 (38).jpg,256,256,apple,24,11,191,242
images (15).jpg,183,275,sandwich,41,136,148,251
editedimages - 2021-01-13T122739.436.jpg,256,256,rice,1,27,239,232
edited2026932.jpg,256,256,cake,68,1,256,236
images - 2021-01-15T124143.268.jpg,177,285,sandwich,1,95,176,182
edited2220600.jpg,256,256,ice cream,4,8,256,240
edited2140011.jpg,256,256,mac and cheese,1,2,256,256
images (35).jpg,275,183,sandwich,57,10,275,81
edited3 (10).jpg,256,256,apple,88,34,219,201
edited9k_ (10).jpg,256,256,rice,20,2,250,201
edited2888958.jpg,256,256,garlic bread,69,79,224,256
edited1983930.jpg,256,256,donut,82,17,194,111
edited2341603.jpg,256,256,mac and cheese,1,1,256,256
images - 2021-01-15T124137.407.jpg,183,275,sandwich,32,93,159,177
images - 2021-01-15T124207.284.jpg,294,171,sandwich,29,34,175,144
edited1 (61).jpg,256,256,apple,92,2,186,168
edited1947993.jpg,256,256,cake,41,66,219,247
edited2637071.jpg,256,256,garlic bread,3,77,177,234
edited2427823.jpg,256,256,cake,24,22,242,223
edited2011783.jpg,256,256,mac and cheese,92,13,256,237
edited2 (28).jpg,256,256,apple,76,31,188,208
edited2105028.jpg,256,256,mac and cheese,7,3,253,240
editedimages - 2021-01-13T122722.010.jpg,256,256,rice,32,27,218,223
edited2071819.jpg,256,256,omellete,1,68,99,256
edited2071819.jpg,256,256,omellete,108,58,256,256
edited2177740.jpg,256,256,mac and cheese,2,29,213,193
edited1 (32).jpg,256,256,apple,111,71,175,182
edited2302697.jpg,256,256,omellete,8,64,244,227
edited2624022.jpg,256,256,french fries,1,3,256,256
editedimages - 2021-01-13T122819.702.jpg,256,256,rice,44,36,256,256
edited1611255.jpg,256,256,donut,1,87,256,256
edited1 (20).jpg,256,256,apple,100,52,186,178
editedimages - 2021-01-13T122724.346.jpg,256,256,rice,126,39,256,256
edited2521012.jpg,256,256,french fries,1,1,256,256
edited1932367.jpg,256,256,mac and cheese,58,58,216,235
edited3 (32).jpg,256,256,apple,99,49,223,217
edited2039720.jpg,256,256,mac and cheese,22,31,216,235
edited1809619.jpg,256,256,ice cream,11,18,256,256
edited2226284.jpg,256,256,french fries,1,1,256,256
edited1882693.jpg,256,256,mac and cheese,8,15,256,217
edited3 (31).jpg,256,256,apple,105,36,218,189
edited1868537.jpg,256,256,omellete,1,63,256,159
edited2200279.jpg,256,256,cake,2,39,256,256
edited2169308.jpg,256,256,french fries,1,1,256,256
editedimages - 2021-01-13T122744.771.jpg,256,256,rice,1,17,232,236
edited2169831.jpg,256,256,omellete,1,92,125,234
edited2 (17).jpg,256,256,apple,91,71,188,203
edited1774515.jpg,256,256,donut,92,106,225,234
edited1774515.jpg,256,256,donut,151,4,232,57
edited1774515.jpg,256,256,donut,64,15,149,79
edited1877804.jpg,256,256,mac and cheese,1,1,256,256
edited1938551.jpg,256,256,omellete,68,12,212,191
edited2515440.jpg,256,256,french fries,1,1,255,255
edited2530648.jpg,256,256,garlic bread,47,78,200,232
editedimages - 2021-01-13T122814.865.jpg,256,256,rice,4,13,255,256
edited2117840.jpg,256,256,garlic bread,39,72,233,218
edited1897629.jpg,256,256,mac and cheese,12,31,253,204
edited2164182.jpg,256,256,ice cream,1,33,256,236
edited3 (1).jpg,256,256,apple,59,22,213,247
edited1743830.jpg,256,256,donut,54,202,93,223
edited1743830.jpg,256,256,donut,149,192,176,212
edited1743830.jpg,256,256,donut,63,61,95,77
edited1743830.jpg,256,256,donut,95,196,121,219
edited2 (43).jpg,256,256,apple,100,44,210,197
editedimages - 2021-01-13T122755.214.jpg,256,256,rice,22,14,210,197
edited1952466.jpg,256,256,mac and cheese,4,3,256,239
edited2480751.jpg,256,256,garlic bread,99,39,228,198
edited2661893.jpg,256,256,french fries,1,2,256,256
edited2673306.jpg,256,256,garlic bread,30,4,196,252
edited2 (39).jpg,256,256,apple,77,34,178,205
images - 2021-01-15T124135.573.jpg,275,183,sandwich,31,13,232,179
edited1 (78).jpg,256,256,apple,100,46,180,191
images (52).jpg,183,275,sandwich,25,141,136,221
images (52).jpg,183,275,sandwich,79,72,176,123
editedimages - 2021-01-13T122807.782.jpg,256,256,rice,33,72,219,181
2Q__ (4).jpg,225,225,sandwich,12,38,208,181
edited2181435.jpg,256,256,garlic bread,5,128,161,217
edited2181435.jpg,256,256,garlic bread,125,27,256,83
edited2181435.jpg,256,256,garlic bread,1,23,86,83
edited2631590.jpg,256,256,french fries,15,1,256,214
editedimages - 2021-01-13T122802.876.jpg,256,256,rice,45,1,254,255
editedimages - 2021-01-13T122742.048.jpg,256,256,rice,31,26,221,229
edited1945027.jpg,256,256,cake,50,16,237,205
edited3 (42).jpg,256,256,apple,54,67,197,227
images - 2021-01-15T124147.371.jpg,259,194,sandwich,13,9,259,121
edited2250313.jpg,256,256,omellete,1,65,229,201
edited2210883.jpg,256,256,cake,14,3,250,243
edited2006257.jpg,256,256,cake,22,10,252,239
edited1770826.jpg,256,256,ice cream,9,7,256,234
edited2129773.jpg,256,256,donut,17,5,250,248
edited2532726.jpg,256,256,garlic bread,16,35,209,191
edited2353128.jpg,256,256,cake,93,7,256,229
edited2 (38).jpg,256,256,apple,97,23,195,200
edited2168330.jpg,256,256,garlic bread,22,82,168,225
edited2168330.jpg,256,256,garlic bread,179,22,234,98
edited2 (15).jpg,256,256,apple,82,42,200,216
edited2195953.jpg,256,256,french fries,3,59,256,256
edited2401057.jpg,256,256,omellete,131,122,256,237
editedimages - 2021-01-13T122814.311.jpg,256,256,rice,21,13,256,241
edited1831403.jpg,256,256,omellete,18,93,254,217
edited2104146.jpg,256,256,donut,8,184,93,256
edited2104146.jpg,256,256,donut,59,35,163,107
edited2104146.jpg,256,256,donut,116,168,214,243
edited2 (24).jpg,256,256,apple,90,26,189,196
editedimages - 2021-01-13T122808.947.jpg,256,256,rice,22,55,209,235
edited2339528.jpg,256,256,omellete,69,81,256,256
editedimages - 2021-01-13T122741.049.jpg,256,256,rice,20,92,248,230
editedimages - 2021-01-13T122720.995.jpg,256,256,rice,20,23,234,227
edited1720807.jpg,256,256,donut,70,49,251,200
edited2818780.jpg,256,256,garlic bread,48,102,196,168
edited2818780.jpg,256,256,garlic bread,40,36,168,82
edited1813883.jpg,256,256,mac and cheese,36,47,239,171
images (65).jpg,238,212,sandwich,2,66,214,190
edited1873010.jpg,256,256,donut,22,37,256,256
edited2068423.jpg,256,256,mac and cheese,15,16,256,244
edited2417976.jpg,256,256,garlic bread,36,25,231,192
edited2609711.jpg,256,256,garlic bread,50,33,256,177
edited2150655.jpg,256,256,cake,4,57,256,247
edited1944941.jpg,256,256,ice cream,1,1,256,256
edited2 (36).jpg,256,256,apple,80,37,186,206
images - 2021-01-15T124204.709.jpg,233,216,sandwich,5,47,228,213
edited1817170.jpg,256,256,ice cream,26,20,210,227
edited1658549.jpg,256,256,omellete,83,64,183,237
edited2627843.jpg,256,256,french fries,1,2,256,256
edited2361623.jpg,256,256,french fries,1,1,256,256
images - 2021-01-15T124141.041.jpg,265,190,sandwich,168,43,228,84
edited2515183.jpg,256,256,french fries,6,11,224,245
edited1927147.jpg,256,256,mac and cheese,2,54,256,199
images - 2021-01-15T124142.203.jpg,197,256,sandwich,40,115,197,238
edited2026240.jpg,256,256,mac and cheese,1,1,256,252
edited2 (21).jpg,256,256,apple,92,54,201,214
edited3 (9).jpg,256,256,apple,86,16,208,161
edited2194788.jpg,256,256,donut,86,68,172,161
edited2194788.jpg,256,256,donut,181,74,256,154
edited2194788.jpg,256,256,donut,76,166,177,255
edited1837017.jpg,256,256,donut,88,76,172,164
edited1837017.jpg,256,256,donut,4,19,90,84
edited1837017.jpg,256,256,donut,4,172,95,254
edited1966637.jpg,256,256,mac and cheese,1,19,244,206
edited2132235.jpg,256,256,mac and cheese,2,6,256,256
edited2022086.jpg,256,256,cake,1,7,255,182
2Q__ (10).jpg,300,168,sandwich,90,1,300,168
edited1777856.jpg,256,256,ice cream,28,5,250,256
edited2784017.jpg,256,256,garlic bread,16,21,237,203
edited1 (50).jpg,256,256,apple,89,40,187,206
images (20).jpg,198,254,sandwich,15,88,163,207
edited1829382.jpg,256,256,donut,42,1,129,67
edited1829382.jpg,256,256,donut,124,79,231,166
edited1829382.jpg,256,256,donut,8,152,120,254
edited1825409.jpg,256,256,omellete,89,2,229,256
editedimages - 2021-01-13T122815.445.jpg,256,256,rice,32,5,256,233
images - 2021-01-15T124205.548.jpg,284,177,sandwich,82,76,157,128
images - 2021-01-15T124205.548.jpg,284,177,sandwich,222,71,284,123
editedimages - 2021-01-13T122816.334.jpg,256,256,rice,17,15,221,256
edited1 (24).jpg,256,256,apple,113,54,179,176
edited2327524.jpg,256,256,mac and cheese,1,76,247,215
edited2249607.jpg,256,256,french fries,1,26,256,256
edited2293285.jpg,256,256,mac and cheese,42,41,203,233
edited1886559.jpg,256,256,cake,22,45,256,231
edited2Q__ (8).jpg,256,256,rice,37,56,240,162
edited2140894.jpg,256,256,mac and cheese,37,136,210,231
edited2140894.jpg,256,256,mac and cheese,10,47,247,101
edited1921412.jpg,256,256,ice cream,2,2,250,231
edited2281029.jpg,256,256,garlic bread,127,50,228,126
edited2281029.jpg,256,256,garlic bread,137,133,254,243
edited2080087.jpg,256,256,cake,10,8,256,256
edited1 (75).jpg,256,256,apple,85,32,177,206
edited2143007.jpg,256,256,cake,42,101,205,244
edited2168596.jpg,256,256,cake,83,86,253,256
edited2078802.jpg,256,256,mac and cheese,2,3,256,256
images - 2021-01-15T124133.111.jpg,188,268,sandwich,51,160,151,239
editedimages - 2021-01-13T122739.163.jpg,256,256,rice,11,62,256,254
edited2371960.jpg,256,256,french fries,2,9,256,256
editedimages - 2021-01-13T122813.694.jpg,256,256,rice,35,84,226,196
edited2189512.jpg,256,256,omellete,21,119,256,256
edited3 (34).jpg,256,256,apple,92,66,199,200
edited1799393.jpg,256,256,ice cream,1,1,256,208
edited2141745.jpg,256,256,mac and cheese,44,26,208,200
edited2064887.jpg,256,256,mac and cheese,2,96,256,256
edited1756963.jpg,256,256,ice cream,17,13,236,242
edited2708944.jpg,256,256,french fries,1,1,256,256
edited2786840.jpg,256,256,garlic bread,114,22,256,213
images - 2021-01-15T124135.107.jpg,275,183,sandwich,28,5,255,98
edited2207281.jpg,256,256,garlic bread,1,82,256,256
edited1 (52).jpg,256,256,apple,95,52,175,182
editedimages - 2021-01-13T122801.741.jpg,256,256,rice,87,34,199,176
edited2247724.jpg,256,256,donut,39,217,135,256
edited2093949.jpg,256,256,french fries,1,55,256,256
edited2093949.jpg,256,256,french fries,5,2,215,50
edited2009441.jpg,256,256,mac and cheese,33,37,239,244
edited2556005.jpg,256,256,garlic bread,6,11,256,171
edited1727922.jpg,256,256,donut,86,64,212,179
edited1727922.jpg,256,256,donut,104,183,214,256
edited1551743.jpg,256,256,donut,194,66,255,108
edited2309666.jpg,256,256,mac and cheese,51,143,159,204
edited1 (25).jpg,256,256,apple,99,30,183,184
edited3 (13).jpg,256,256,apple,72,37,211,225
edited2293554.jpg,256,256,french fries,37,15,235,179
images - 2021-01-15T124134.449.jpg,275,183,sandwich,4,4,248,167
edited2005627.jpg,256,256,ice cream,20,46,62,96
edited2005627.jpg,256,256,ice cream,94,39,137,93
edited2005627.jpg,256,256,ice cream,155,41,200,85
edited2853098.jpg,256,256,garlic bread,1,4,252,134
edited2Q__ (5).jpg,256,256,rice,1,80,256,256
edited2150187.jpg,256,256,french fries,7,69,248,241
edited1750980.jpg,256,256,donut,8,18,74,97
edited1750980.jpg,256,256,donut,1,160,71,223
edited2355379.jpg,256,256,french fries,5,14,256,256
edited3 (40).jpg,256,256,apple,68,54,185,195
edited1884101.jpg,256,256,cake,39,103,124,178
edited1 (73).jpg,256,256,apple,84,26,186,213
editedimages - 2021-01-13T122759.243.jpg,256,256,rice,1,12,250,223
edited2001070.jpg,256,256,ice cream,37,2,243,239
edited1912405.jpg,256,256,donut,109,96,202,179
edited1912405.jpg,256,256,donut,10,159,116,239
edited1571687.jpg,256,256,donut,1,1,256,251
edited2338514.jpg,256,256,omellete,5,11,256,243
edited2256347.jpg,256,256,garlic bread,2,2,160,256
edited2085894.jpg,256,256,ice cream,81,78,184,256
edited2172533.jpg,256,256,omellete,1,31,255,224
edited2230972.jpg,256,256,cake,10,18,248,226
edited2330281.jpg,256,256,omellete,125,39,256,256
edited2699989.jpg,256,256,french fries,1,2,256,256
edited3 (23).jpg,256,256,apple,70,34,202,186
edited2226086.jpg,256,256,omellete,1,25,256,161
edited2093557.jpg,256,256,french fries,11,6,256,256
edited1739259.jpg,256,256,omellete,23,52,247,208
edited2035027.jpg,256,256,cake,5,10,247,193
edited2082752.jpg,256,256,omellete,80,14,208,122
edited2027349.jpg,256,256,mac and cheese,3,22,256,256
edited2289408.jpg,256,256,cake,1,1,256,256
edited1800883.jpg,256,256,donut,138,43,256,256
edited2689796.jpg,256,256,garlic bread,1,17,256,246
editedimages - 2021-01-13T122813.943.jpg,256,256,rice,129,60,249,184
edited2 (33).jpg,256,256,apple,86,45,194,207
editedimages - 2021-01-13T122822.474.jpg,256,256,rice,7,56,237,236
edited1513440.jpg,256,256,donut,111,108,252,244
edited1951986.jpg,256,256,ice cream,15,9,249,246
edited1452774.jpg,256,256,donut,65,2,256,256
edited2014731.jpg,256,256,omellete,32,106,239,219
edited2221918.jpg,256,256,garlic bread,68,112,176,204
edited2221918.jpg,256,256,garlic bread,180,39,256,158
edited1843872.jpg,256,256,omellete,4,7,247,250
edited1710501.jpg,256,256,ice cream,2,25,256,231
edited1521755.jpg,256,256,donut,152,142,232,223
edited2213917.jpg,256,256,french fries,4,51,256,233
edited3 (43).jpg,256,256,apple,60,52,199,217
edited2183039.jpg,256,256,garlic bread,24,36,249,201
edited2154268.jpg,256,256,omellete,30,40,197,213
editedimages - 2021-01-13T122737.926.jpg,256,256,rice,35,60,214,182
edited2045975.jpg,256,256,cake,35,46,254,237
edited2190664.jpg,256,256,omellete,3,4,256,256
edited2498356.jpg,256,256,french fries,18,1,239,249
edited2 (11).jpg,256,256,apple,92,3,194,191
edited2209979.jpg,256,256,donut,2,42,211,215
edited2033804.jpg,256,256,ice cream,57,24,119,98
editedimages - 2021-01-13T122803.067.jpg,256,256,rice,15,41,256,238
images - 2021-01-15T124134.571.jpg,299,168,sandwich,1,2,299,92
edited2327195.jpg,256,256,cake,22,10,256,256
edited1774835.jpg,256,256,donut,1,1,144,148
edited2135733.jpg,256,256,omellete,3,12,128,231
edited2458356.jpg,256,256,garlic bread,22,1,256,256
edited2301316.jpg,256,256,cake,84,8,231,175
edited2649282.jpg,256,256,french fries,4,10,256,256
edited2153161.jpg,256,256,donut,81,56,200,167
images (50).jpg,183,275,sandwich,14,71,178,168
edited1752123.jpg,256,256,mac and cheese,18,39,250,213
editedimages - 2021-01-13T122811.966.jpg,256,256,rice,20,44,255,210
edited2249127.jpg,256,256,omellete,1,11,143,256
edited1880044.jpg,256,256,cake,27,11,229,226
images (70).jpg,265,190,sandwich,21,12,261,160
edited2158248.jpg,256,256,omellete,25,21,196,256
images (71).jpg,280,180,sandwich,41,15,249,149
edited1696465.jpg,256,256,donut,51,42,129,108
edited1696465.jpg,256,256,donut,8,156,85,211
edited1696465.jpg,256,256,donut,135,31,210,76
edited2137802.jpg,256,256,donut,25,29,136,211
edited2878716.jpg,256,256,garlic bread,56,50,242,227
editedimages - 2021-01-13T122811.416.jpg,256,256,rice,97,59,217,217
edited2464792.jpg,256,256,cake,1,23,256,246
edited2373461.jpg,256,256,cake,6,8,256,256
editedimages - 2021-01-13T122806.237.jpg,256,256,rice,18,20,256,171
edited2203698.jpg,256,256,garlic bread,137,2,256,256
edited2661646.jpg,256,256,french fries,1,2,256,256
images - 2021-01-15T124145.153.jpg,186,270,sandwich,29,55,179,135
edited2038553.jpg,256,256,ice cream,9,4,256,255
edited2146965.jpg,256,256,omellete,2,34,256,211
edited2139401.jpg,256,256,mac and cheese,1,22,250,256
edited2342191.jpg,256,256,omellete,5,106,256,224
edited2432066.jpg,256,256,mac and cheese,20,81,195,196
edited1539242.jpg,256,256,donut,35,22,237,239
edited2652203.jpg,256,256,french fries,4,2,256,256
edited1782530.jpg,256,256,cake,19,46,232,220
editedimages - 2021-01-13T122817.294.jpg,256,256,rice,1,82,256,256
edited2162865.jpg,256,256,garlic bread,22,16,188,182
9k_ (9).jpg,183,275,sandwich,20,20,183,241
editedimages - 2021-01-13T122746.390.jpg,256,256,rice,1,44,255,231
edited2329364.jpg,256,256,garlic bread,2,111,113,191
edited2329364.jpg,256,256,garlic bread,150,80,253,114
edited2528368.jpg,256,256,french fries,19,31,239,236
edited1913831.jpg,256,256,omellete,9,72,256,256
images - 2021-01-15T124205.377.jpg,259,195,sandwich,1,18,249,114
edited2 (4).jpg,256,256,apple,110,39,198,202
2Q__ (11).jpg,300,168,sandwich,98,4,247,81
edited2641659.jpg,256,256,garlic bread,113,43,231,196
2Q__ (2).jpg,100,100,sandwich,2,8,100,90
edited1 (30).jpg,256,256,apple,102,64,165,180
images - 2021-01-15T124142.561.jpg,275,183,sandwich,87,10,181,96
edited1804812.jpg,256,256,ice cream,61,38,232,209
edited1 (65).jpg,256,256,apple,98,57,160,151
edited2213406.jpg,256,256,garlic bread,24,46,256,215
edited2335480.jpg,256,256,mac and cheese,2,1,256,256
edited2223225.jpg,256,256,ice cream,71,6,227,253
edited1782668.jpg,256,256,mac and cheese,43,13,220,222
edited1847342.jpg,256,256,donut,108,107,256,256
edited2497101.jpg,256,256,french fries,3,3,256,256
edited1690052.jpg,256,256,donut,43,7,130,91
edited1690052.jpg,256,256,donut,172,123,251,207
edited1690052.jpg,256,256,donut,14,174,103,256
edited1690052.jpg,256,256,donut,141,32,226,123
edited1919620.jpg,256,256,omellete,1,1,256,148
edited1854061.jpg,256,256,ice cream,24,100,158,234
edited2551910.jpg,256,256,french fries,4,24,256,256
edited1875596.jpg,256,256,donut,10,160,96,256
edited1875596.jpg,256,256,donut,158,108,220,163
edited1875596.jpg,256,256,donut,145,10,222,62
edited1904200.jpg,256,256,cake,10,1,246,256
images (27).jpg,259,194,sandwich,54,15,206,182
edited2272852.jpg,256,256,ice cream,2,34,211,251
edited1844753.jpg,256,256,omellete,1,74,116,256
edited1921044.jpg,256,256,mac and cheese,84,9,256,152
edited2004950.jpg,256,256,cake,18,7,220,177
edited2493036.jpg,256,256,french fries,2,5,256,246
edited1838193.jpg,256,256,mac and cheese,33,45,235,202
edited1478125.jpg,256,256,donut,39,127,214,256
edited2434474.jpg,256,256,cake,65,77,233,185
editedimages - 2021-01-13T122734.365.jpg,256,256,rice,1,13,252,207
edited2012607.jpg,256,256,ice cream,62,4,189,213
edited2140822.jpg,256,256,cake,13,7,254,242
edited1812316.jpg,256,256,omellete,6,18,256,256
edited2291791.jpg,256,256,garlic bread,34,70,256,256
edited2260789.jpg,256,256,omellete,96,40,255,256
edited3 (50).jpg,256,256,apple,82,16,217,201
edited1991096.jpg,256,256,mac and cheese,92,39,235,217
edited2894125.jpg,256,256,garlic bread,109,10,256,167
images - 2021-01-15T124205.467.jpg,235,214,sandwich,31,13,233,178
edited1733579.jpg,256,256,omellete,26,86,153,184
edited1529466.jpg,256,256,donut,16,153,139,256
edited2419390.jpg,256,256,mac and cheese,10,55,239,217
edited2209676.jpg,256,256,garlic bread,68,114,239,235
edited2200798.jpg,256,256,garlic bread,9,3,168,224
edited2051667.jpg,256,256,mac and cheese,10,42,245,189
edited2394139.jpg,256,256,french fries,61,57,256,256
edited2 (12).jpg,256,256,apple,94,1,191,201
images - 2021-01-15T124133.450.jpg,259,194,sandwich,28,22,247,140
editedimages - 2021-01-13T122805.349.jpg,256,256,rice,6,6,249,247
edited2139248.jpg,256,256,ice cream,12,23,218,221
edited2254119.jpg,256,256,donut,1,87,147,252
edited2338175.jpg,256,256,french fries,1,15,255,252
edited2632761.jpg,256,256,french fries,1,2,256,249
edited1834530.jpg,256,256,mac and cheese,30,20,245,225
edited2014752.jpg,256,256,cake,19,51,242,256
editedimages - 2021-01-13T122759.968.jpg,256,256,rice,24,8,250,227
edited2664297.jpg,256,256,garlic bread,44,18,245,199
edited2576150.jpg,256,256,french fries,60,5,243,211
edited2418982.jpg,256,256,cake,2,18,256,256
edited1 (84).jpg,256,256,apple,92,59,159,182
edited2385210.jpg,256,256,french fries,1,1,256,256
edited2217633.jpg,256,256,ice cream,109,71,256,181
edited2668319.jpg,256,256,garlic bread,5,6,256,248
edited2427959.jpg,256,256,mac and cheese,11,15,256,238
edited2005850.jpg,256,256,ice cream,2,1,256,251
edited9k_ (12).jpg,256,256,rice,2,1,256,256
edited1854500.jpg,256,256,mac and cheese,2,1,256,245
edited2296361.jpg,256,256,mac and cheese,13,1,210,256
edited2366907.jpg,256,256,garlic bread,4,58,136,237
edited2573727.jpg,256,256,french fries,1,1,256,237
edited1837962.jpg,256,256,omellete,34,1,256,247
edited3 (29).jpg,256,256,apple,102,21,220,175
edited2294217.jpg,256,256,cake,129,11,249,117
edited2294217.jpg,256,256,cake,4,25,126,121
edited2294217.jpg,256,256,cake,11,141,124,246
edited2294217.jpg,256,256,cake,134,132,252,246
edited2339271.jpg,256,256,cake,6,4,256,256
edited2097878.jpg,256,256,cake,100,20,213,216
images - 2021-01-15T124138.209.jpg,183,275,sandwich,37,157,168,234
edited2828465.jpg,256,256,garlic bread,1,1,255,254
edited2092602.jpg,256,256,omellete,54,139,224,252
edited2215921.jpg,256,256,donut,56,97,182,247
edited2296389.jpg,256,256,omellete,83,73,256,256
edited2236262.jpg,256,256,omellete,4,1,256,256
edited1928682.jpg,256,256,ice cream,5,100,90,212
edited2130921.jpg,256,256,cake,10,14,255,244
edited2317232.jpg,256,256,donut,25,52,65,76
edited1 (36).jpg,256,256,apple,104,34,180,175
edited1937929.jpg,256,256,mac and cheese,1,27,230,256
edited2156938.jpg,256,256,garlic bread,1,20,256,256
edited1804347.jpg,256,256,mac and cheese,80,119,256,245
edited2569827.jpg,256,256,french fries,1,1,220,110
edited2000322.jpg,256,256,ice cream,6,62,217,215
edited2178445.jpg,256,256,ice cream,1,5,256,252
edited2125955.jpg,256,256,donut,68,80,181,192
edited3 (44).jpg,256,256,apple,49,29,199,206
2Q__ (3).jpg,100,100,sandwich,1,47,92,95
images - 2021-01-15T124132.889.jpg,321,157,sandwich,191,50,316,143
editedimages - 2021-01-13T122750.403.jpg,256,256,rice,17,19,221,206
edited2138489.jpg,256,256,omellete,22,122,254,252
edited1844971.jpg,256,256,ice cream,64,6,216,256
edited2142617.jpg,256,256,donut,65,2,195,127
edited2708723.jpg,256,256,french fries,4,7,256,247
edited2404313.jpg,256,256,omellete,76,48,245,130
edited1860571.jpg,256,256,donut,1,1,194,119
edited2034121.jpg,256,256,omellete,4,2,254,255
editedimages - 2021-01-13T122725.436.jpg,256,256,rice,1,1,256,200
edited1812511.jpg,256,256,ice cream,39,31,217,235
edited1981582.jpg,256,256,donut,118,92,256,256
edited1981582.jpg,256,256,donut,4,94,113,253
edited3 (21).jpg,256,256,apple,67,25,190,189
edited2092497.jpg,256,256,cake,21,6,219,227
edited1966566.jpg,256,256,ice cream,25,10,247,249
edited1949366.jpg,256,256,mac and cheese,1,1,256,256
edited2000307.jpg,256,256,ice cream,66,71,128,132
edited2000307.jpg,256,256,ice cream,132,12,204,146
edited2199685.jpg,256,256,donut,116,77,213,161
edited2199685.jpg,256,256,donut,26,9,107,81
edited2607081.jpg,256,256,french fries,7,17,256,255
editedimages - 2021-01-13T122737.677.jpg,256,256,rice,2,83,229,220
edited1 (34).jpg,256,256,apple,85,55,175,191
edited1836327.jpg,256,256,donut,67,117,145,171
edited1836327.jpg,256,256,donut,149,116,222,174
edited1 (47).jpg,256,256,apple,82,47,163,192
edited2227296.jpg,256,256,french fries,1,1,256,256
edited2587195.jpg,256,256,garlic bread,34,1,256,246
images (10).jpg,259,194,sandwich,55,6,200,168
edited2479731.jpg,256,256,garlic bread,122,42,233,181
edited2310252.jpg,256,256,omellete,9,21,253,137
edited2058108.jpg,256,256,donut,17,126,166,222
edited2058108.jpg,256,256,donut,174,44,255,86
edited2058108.jpg,256,256,donut,3,37,82,106
edited2418455.jpg,256,256,french fries,24,31,237,256
edited2497428.jpg,256,256,french fries,102,10,256,178
images - 2021-01-15T124140.526.jpg,224,224,sandwich,3,36,224,217
edited1885408.jpg,256,256,donut,76,114,189,202
edited1885408.jpg,256,256,donut,1,113,73,186
edited2641499.jpg,256,256,french fries,1,9,256,219
editedimages - 2021-01-13T122726.967.jpg,256,256,rice,1,57,107,172
editedimages - 2021-01-13T122726.967.jpg,256,256,rice,125,97,256,242
edited2134732.jpg,256,256,ice cream,99,68,172,191
edited3 (33).jpg,256,256,apple,86,42,186,175
edited2146314.jpg,256,256,cake,28,6,214,188
edited2201177.jpg,256,256,garlic bread,15,119,138,216
edited2201177.jpg,256,256,garlic bread,3,28,117,96
editedimages - 2021-01-13T122752.275.jpg,256,256,rice,17,22,243,226
edited1722063.jpg,256,256,donut,30,148,225,256
edited1722063.jpg,256,256,donut,70,1,193,79
edited2502370.jpg,256,256,french fries,29,25,242,236
edited3 (24).jpg,256,256,apple,56,17,193,181
edited1663053.jpg,256,256,donut,1,100,158,229
edited2 (6).jpg,256,256,apple,97,41,183,192
edited2300450.jpg,256,256,garlic bread,1,1,256,256
edited1767771.jpg,256,256,omellete,100,102,213,227
editedimages - 2021-01-13T122745.349.jpg,256,256,rice,72,9,256,249
edited1699065.jpg,256,256,omellete,1,101,236,244
edited2055627.jpg,256,256,omellete,9,49,141,191
edited1954149.jpg,256,256,mac and cheese,1,1,256,256
images - 2021-01-15T124140.317.jpg,225,225,sandwich,14,21,207,204
edited3 (26).jpg,256,256,apple,45,21,200,197
edited1610896.jpg,256,256,donut,108,43,220,112
edited2188378.jpg,256,256,ice cream,51,54,235,242
edited1795163.jpg,256,256,ice cream,70,104,184,212
edited2151729.jpg,256,256,mac and cheese,35,18,256,256
edited2348318.jpg,256,256,french fries,17,47,243,203
edited2 (37).jpg,256,256,apple,85,24,194,208
edited2398418.jpg,256,256,french fries,1,12,256,256
edited2218119.jpg,256,256,garlic bread,2,23,233,252
edited2468390.jpg,256,256,cake,21,6,224,207
edited2284468.jpg,256,256,omellete,90,66,228,220
images - 2021-01-15T124147.404.jpg,183,275,sandwich,1,98,105,218
edited1933395.jpg,256,256,donut,63,71,140,182
edited2255614.jpg,256,256,cake,19,37,175,172
edited2350833.jpg,256,256,french fries,1,1,256,256
images - 2021-01-15T124138.126.jpg,274,184,sandwich,169,34,270,97
images (28).jpg,269,187,sandwich,65,24,269,170
images (43).jpg,274,184,sandwich,1,8,180,164
edited1992983.jpg,256,256,omellete,7,114,119,246
images - 2021-01-15T124137.274.jpg,240,210,sandwich,122,47,207,205
edited2417562.jpg,256,256,cake,1,4,256,212
edited2680169.jpg,256,256,french fries,1,18,256,247
edited1921832.jpg,256,256,donut,172,92,234,196
edited2225097.jpg,256,256,donut,1,182,106,247
edited2225097.jpg,256,256,donut,19,99,117,138
images - 2021-01-15T124205.901.jpg,275,183,sandwich,84,46,216,146
edited1931237.jpg,256,256,donut,72,129,154,202
edited1931237.jpg,256,256,donut,146,50,209,120
edited1858406.jpg,256,256,mac and cheese,5,20,256,256
edited1808923.jpg,256,256,cake,111,59,256,192
edited2204986.jpg,256,256,garlic bread,105,89,256,256
images (53).jpg,201,251,sandwich,43,92,143,224
edited1471597.jpg,256,256,donut,57,1,149,109
edited1471597.jpg,256,256,donut,70,136,190,256
edited2276332.jpg,256,256,garlic bread,22,119,104,226
editedimages - 2021-01-13T122752.499.jpg,256,256,rice,21,64,201,241
edited2289892.jpg,256,256,omellete,1,110,256,256
edited2436856.jpg,256,256,garlic bread,8,91,156,225
edited1997049.jpg,256,256,ice cream,15,36,234,222
edited2060782.jpg,256,256,ice cream,42,29,249,236
edited2369999.jpg,256,256,french fries,3,4,256,256
images - 2021-01-15T124132.234.jpg,201,251,sandwich,65,76,183,176
edited2503834.jpg,256,256,french fries,25,6,252,254
edited2042052.jpg,256,256,mac and cheese,56,25,200,156
edited1555893.jpg,256,256,donut,98,99,227,256
edited1555893.jpg,256,256,donut,131,13,234,97
edited2122206.jpg,256,256,mac and cheese,1,2,256,256
images (18).jpg,250,201,sandwich,102,1,250,201
edited2143126.jpg,256,256,omellete,41,73,255,253
editedimages - 2021-01-13T122739.754.jpg,256,256,rice,14,9,231,179
edited1930309.jpg,256,256,cake,5,1,254,252
edited2242225.jpg,256,256,garlic bread,16,8,205,231
edited2229825.jpg,256,256,cake,8,16,248,251
edited1511290.jpg,256,256,donut,1,55,182,232
edited1949849.jpg,256,256,mac and cheese,26,50,223,235
edited2400954.jpg,256,256,cake,1,18,256,256
editedimages - 2021-01-13T122806.525.jpg,256,256,rice,49,52,218,185
edited1 (54).jpg,256,256,apple,110,47,190,185
edited1899411.jpg,256,256,cake,1,1,225,162
images - 2021-01-15T124207.647.jpg,183,275,sandwich,11,120,150,213
edited2177889.jpg,256,256,omellete,1,6,256,256
edited2301475.jpg,256,256,french fries,1,19,256,256
edited1978210.jpg,256,256,donut,154,128,225,212
edited1978210.jpg,256,256,donut,53,91,129,162
edited1978210.jpg,256,256,donut,156,8,212,64
editedimages - 2021-01-13T122807.351.jpg,256,256,rice,5,49,256,245
edited2131877.jpg,256,256,garlic bread,1,22,256,256
edited2076828.jpg,256,256,ice cream,13,16,256,203
images (32).jpg,183,275,sandwich,24,112,167,186
images - 2021-01-15T124210.156.jpg,275,183,sandwich,140,26,272,150
edited1 (29).jpg,256,256,apple,94,28,177,159
edited2227881.jpg,256,256,ice cream,9,13,198,234
edited1963994.jpg,256,256,cake,3,3,143,214
edited2302956.jpg,256,256,cake,31,3,251,253
edited1967528.jpg,256,256,cake,41,27,214,192
edited1 (66).jpg,256,256,apple,97,51,173,181
edited2479227.jpg,256,256,garlic bread,27,13,233,256
edited1820146.jpg,256,256,donut,60,103,144,161
edited1755763.jpg,256,256,mac and cheese,43,86,184,192
edited2362793.jpg,256,256,mac and cheese,65,38,231,197
edited2620981.jpg,256,256,garlic bread,123,61,215,178
edited1547405.jpg,256,256,donut,79,59,160,168
editedimages - 2021-01-13T122756.982.jpg,256,256,rice,1,5,216,256
edited2247629.jpg,256,256,mac and cheese,7,51,256,198
edited1497340.jpg,256,256,donut,15,178,120,256
editedimages - 2021-01-13T122809.512.jpg,256,256,rice,12,63,256,256
edited2275705.jpg,256,256,garlic bread,121,25,256,256
edited2023980.jpg,256,256,donut,13,139,97,229
edited1 (64).jpg,256,256,apple,106,32,191,177
edited2246372.jpg,256,256,garlic bread,48,42,194,223
images (44).jpg,327,154,sandwich,19,3,284,69
edited3 (20).jpg,256,256,apple,78,23,198,174
edited1586465.jpg,256,256,donut,130,78,194,172
edited1586465.jpg,256,256,donut,15,1,75,66
edited1586465.jpg,256,256,donut,1,158,66,256
edited1586465.jpg,256,256,donut,189,1,256,75
edited1991818.jpg,256,256,omellete,104,11,252,254
edited1847533.jpg,256,256,cake,32,30,232,238
edited2335294.jpg,256,256,omellete,137,22,245,252
edited2048511.jpg,256,256,mac and cheese,5,1,256,171
edited2476066.jpg,256,256,french fries,44,16,251,210
edited1935959.jpg,256,256,ice cream,38,6,253,256
edited2759624.jpg,256,256,garlic bread,1,1,225,228
edited2451520.jpg,256,256,garlic bread,109,12,256,192
edited1 (83).jpg,256,256,apple,101,75,157,171
2Q__ (9).jpg,281,179,sandwich,79,8,153,159
2Q__ (9).jpg,281,179,sandwich,201,18,278,155
edited2617942.jpg,256,256,french fries,12,11,181,185
edited1896898.jpg,256,256,mac and cheese,9,27,254,207
edited2705623.jpg,256,256,french fries,8,8,246,248
edited1996318.jpg,256,256,ice cream,39,86,104,192
edited1996318.jpg,256,256,ice cream,120,86,189,189
edited1996318.jpg,256,256,ice cream,120,29,175,78
edited2317067.jpg,256,256,donut,14,69,134,167
edited2 (10).jpg,256,256,apple,98,27,180,191
edited1711195.jpg,256,256,donut,31,156,84,194
edited1711195.jpg,256,256,donut,178,144,231,186
edited1845706.jpg,256,256,mac and cheese,52,50,221,226
edited2047977.jpg,256,256,omellete,75,14,256,247
edited2327947.jpg,256,256,omellete,90,30,245,197
images - 2021-01-15T124132.702.jpg,275,183,sandwich,155,57,275,144
edited1805358.jpg,256,256,cake,32,78,232,247
edited2080558.jpg,256,256,ice cream,1,68,132,237
edited2080558.jpg,256,256,ice cream,139,24,256,256
editedimages - 2021-01-13T122722.940.jpg,256,256,rice,9,17,245,208
edited2094296.jpg,256,256,ice cream,18,8,245,256
edited2278346.jpg,256,256,omellete,1,46,255,253
edited2337451.jpg,256,256,cake,55,13,240,177
edited2314805.jpg,256,256,french fries,1,8,256,256
edited2418438.jpg,256,256,cake,12,60,229,219
edited2262914.jpg,256,256,donut,12,109,211,247
edited1 (33).jpg,256,256,apple,93,56,173,176
edited2163277.jpg,256,256,cake,1,32,256,193
images - 2021-01-15T124207.532.jpg,225,225,sandwich,14,26,215,194
edited2255754.jpg,256,256,cake,63,97,200,239
edited2255754.jpg,256,256,cake,1,47,50,108
edited2580653.jpg,256,256,french fries,20,1,256,184
edited1978057.jpg,256,256,cake,1,14,256,248
edited2092142.jpg,256,256,cake,21,19,248,242
edited2229500.jpg,256,256,french fries,1,31,256,236
edited2298549.jpg,256,256,mac and cheese,34,37,241,226
edited2061166.jpg,256,256,mac and cheese,36,44,222,226
edited2184751.jpg,256,256,ice cream,37,108,163,239
edited2236550.jpg,256,256,garlic bread,1,53,256,189
edited2808446.jpg,256,256,garlic bread,83,29,234,230
edited2349927.jpg,256,256,cake,10,59,252,212
edited1795168.jpg,256,256,ice cream,134,49,256,157
edited2248373.jpg,256,256,french fries,2,10,256,256
edited2227832.jpg,256,256,mac and cheese,1,2,256,256
images - 2021-01-15T124133.477.jpg,283,178,sandwich,4,38,253,165
edited1854052.jpg,256,256,mac and cheese,32,7,256,256
edited2119277.jpg,256,256,garlic bread,5,77,153,242
edited1684564.jpg,256,256,mac and cheese,1,104,247,223
edited1684564.jpg,256,256,garlic bread,80,33,196,79
edited1792568.jpg,256,256,ice cream,60,31,209,229
edited1800278.jpg,256,256,ice cream,26,11,195,237
edited2098634.jpg,256,256,ice cream,29,16,231,227
edited2582161.jpg,256,256,garlic bread,1,1,256,256
edited1980029.jpg,256,256,cake,2,7,256,247
editedimages - 2021-01-13T122803.378.jpg,256,256,rice,25,7,215,256
edited2377595.jpg,256,256,mac and cheese,18,39,256,189
edited1748616.jpg,256,256,omellete,1,1,256,230
edited2271198.jpg,256,256,omellete,71,7,256,256
edited2437266.jpg,256,256,cake,14,9,247,251
edited2003670.jpg,256,256,donut,107,28,177,117
edited2003670.jpg,256,256,donut,177,123,255,231
edited2003670.jpg,256,256,donut,33,126,107,242
edited2485920.jpg,256,256,french fries,6,6,256,256
edited2237397.jpg,256,256,ice cream,9,6,232,256
edited3 (16).jpg,256,256,apple,87,24,183,152
edited1718861.jpg,256,256,ice cream,121,91,256,256
edited2490548.jpg,256,256,french fries,1,2,256,256
edited2214535.jpg,256,256,french fries,1,1,256,256
edited1764314.jpg,256,256,donut,27,107,154,191
editedimages - 2021-01-13T122805.075.jpg,256,256,rice,26,19,140,192
images (34).jpg,270,187,sandwich,12,48,183,169
edited2143239.jpg,256,256,cake,6,97,177,236
edited2556701.jpg,256,256,garlic bread,106,6,239,243
edited1 (62).jpg,256,256,apple,94,29,178,193
editedimages - 2021-01-13T122734.905.jpg,256,256,rice,4,37,226,227
edited2194821.jpg,256,256,omellete,24,1,256,256
edited1732647.jpg,256,256,omellete,11,96,256,227
editedimages - 2021-01-13T122821.508.jpg,256,256,rice,52,57,173,228
images (17).jpg,183,275,sandwich,8,48,183,227
edited2314417.jpg,256,256,cake,27,14,133,201
edited2314417.jpg,256,256,cake,140,13,241,200
edited2273961.jpg,256,256,ice cream,11,5,256,256
edited2099185.jpg,256,256,mac and cheese,2,71,256,199
edited1954438.jpg,256,256,donut,43,7,124,92
edited1954438.jpg,256,256,donut,140,38,224,124
edited1954438.jpg,256,256,donut,12,167,94,256
edited1954438.jpg,256,256,donut,113,191,198,256
edited2312342.jpg,256,256,cake,10,8,256,250
edited2147574.jpg,256,256,cake,75,24,220,178
edited2023796.jpg,256,256,omellete,51,57,222,181
edited2086467.jpg,256,256,mac and cheese,13,50,229,211
editedimages - 2021-01-13T122813.060.jpg,256,256,rice,38,4,224,237
edited9k_ (2).jpg,256,256,rice,1,33,244,254
edited2337571.jpg,256,256,garlic bread,9,131,101,206
edited2337571.jpg,256,256,garlic bread,133,111,222,167
edited2337571.jpg,256,256,garlic bread,96,44,174,92
edited2337571.jpg,256,256,garlic bread,182,19,248,56
edited1 (70).jpg,256,256,apple,92,39,185,206
edited2166123.jpg,256,256,donut,129,44,256,227
edited1894453.jpg,256,256,cake,58,48,242,209
edited2278380.jpg,256,256,french fries,1,1,256,256
edited1869998.jpg,256,256,donut,13,49,137,208
edited1 (79).jpg,256,256,apple,98,59,183,232
edited2023132.jpg,256,256,donut,1,99,164,227
edited1926377.jpg,256,256,ice cream,3,62,127,227
edited1926377.jpg,256,256,ice cream,135,64,233,212
edited2528025.jpg,256,256,garlic bread,80,83,254,208
edited2021718.jpg,256,256,cake,10,13,123,249
edited2021718.jpg,256,256,cake,148,37,245,244
images - 2021-01-15T124147.379.jpg,183,275,sandwich,8,67,181,149
edited2104283.jpg,256,256,cake,1,1,256,233
edited1888050.jpg,256,256,mac and cheese,13,18,237,206
edited1791450.jpg,256,256,cake,43,84,210,244
edited2219727.jpg,256,256,cake,17,47,230,221
edited2397826.jpg,256,256,cake,95,22,196,138
edited2382614.jpg,256,256,french fries,1,1,256,256
edited2703358.jpg,256,256,garlic bread,54,100,225,229
images (23).jpg,218,231,sandwich,5,35,160,127
edited2637800.jpg,256,256,french fries,8,11,256,256
edited2397546.jpg,256,256,garlic bread,51,32,232,136
edited2404064.jpg,256,256,garlic bread,7,42,222,133
edited2383032.jpg,256,256,garlic bread,44,56,169,199
edited2Q__ (4).jpg,256,256,rice,17,1,212,234
edited2275484.jpg,256,256,french fries,4,2,256,256
edited2683384.jpg,256,256,garlic bread,1,2,227,196
edited1860645.jpg,256,256,mac and cheese,2,2,256,256
edited1873109.jpg,256,256,ice cream,5,13,226,252
edited2677445.jpg,256,256,french fries,3,70,222,256
edited2Q__ (3).jpg,256,256,rice,1,7,225,256
edited1675150.jpg,256,256,omellete,1,72,142,182
editedimages - 2021-01-13T122732.088.jpg,256,256,rice,4,33,254,196
edited1812806.jpg,256,256,mac and cheese,1,1,238,256
edited2097037.jpg,256,256,omellete,45,117,254,253
edited2000127.jpg,256,256,cake,3,4,256,256
edited2133877.jpg,256,256,cake,2,36,229,239
edited2172250.jpg,256,256,garlic bread,29,14,256,256
edited1840808.jpg,256,256,ice cream,24,6,256,256
edited1876540.jpg,256,256,omellete,1,26,147,234
editedimages - 2021-01-13T122729.881.jpg,256,256,rice,30,43,256,238
edited2381738.jpg,256,256,omellete,2,82,250,205
edited2 (20).jpg,256,256,apple,90,61,180,202
edited1871368.jpg,256,256,cake,12,32,256,212
edited1912572.jpg,256,256,omellete,29,112,256,256
edited1 (45).jpg,256,256,apple,87,49,164,189
edited1658121.jpg,256,256,donut,25,43,84,113
edited1658121.jpg,256,256,donut,144,97,211,194
edited2121537.jpg,256,256,french fries,4,1,256,256
editedimages - 2021-01-13T122742.410.jpg,256,256,rice,1,93,205,243
edited2630804.jpg,256,256,french fries,11,12,256,245
edited2066663.jpg,256,256,donut,1,4,256,256
edited2351163.jpg,256,256,cake,54,29,237,197
editedimages - 2021-01-13T122745.890.jpg,256,256,rice,27,71,243,216
edited2255716.jpg,256,256,garlic bread,11,42,133,149
edited2275237.jpg,256,256,mac and cheese,15,60,256,206
edited1764011.jpg,256,256,mac and cheese,1,131,225,256
edited2136237.jpg,256,256,cake,2,1,256,252
edited1940523.jpg,256,256,omellete,2,68,256,256
edited2Q__ (6).jpg,256,256,rice,31,46,220,230
images - 2021-01-15T124137.579.jpg,275,183,sandwich,47,16,158,82
edited1737618.jpg,256,256,omellete,17,149,193,256
edited1 (1).jpg,256,256,apple,101,72,173,182
edited2596069.jpg,256,256,garlic bread,53,79,157,242
edited1658503.jpg,256,256,omellete,1,77,256,256
images - 2021-01-15T124134.366.jpg,299,168,sandwich,38,49,200,168
edited2449426.jpg,256,256,mac and cheese,17,49,249,239
edited1863057.jpg,256,256,omellete,1,7,119,256
edited2842958.jpg,256,256,garlic bread,1,1,256,186
edited2090829.jpg,256,256,omellete,42,63,164,250
edited2099094.jpg,256,256,french fries,4,7,256,232
edited2099046.jpg,256,256,mac and cheese,7,23,256,246
edited2126499.jpg,256,256,french fries,2,8,256,256
images - 2021-01-15T124142.497.jpg,194,259,sandwich,5,125,121,214
edited2110322.jpg,256,256,donut,124,142,145,162
edited2110322.jpg,256,256,donut,166,142,187,161
edited2110322.jpg,256,256,donut,193,185,214,203
edited2110322.jpg,256,256,donut,228,181,247,204
edited2110322.jpg,256,256,donut,107,182,126,202
edited2110322.jpg,256,256,donut,77,184,97,203
edited1878412.jpg,256,256,cake,28,32,256,256
edited2185389.jpg,256,256,cake,63,20,205,215
edited1812031.jpg,256,256,mac and cheese,54,1,237,152
edited2471807.jpg,256,256,garlic bread,19,21,250,164
edited2734763.jpg,256,256,garlic bread,1,10,256,244
edited2530422.jpg,256,256,french fries,4,26,256,185
images (30).jpg,225,225,sandwich,3,53,172,183
edited1844555.jpg,256,256,donut,117,123,165,179
edited1844555.jpg,256,256,donut,41,102,89,147
edited1844555.jpg,256,256,donut,42,202,97,251
edited1844555.jpg,256,256,donut,97,64,149,111
edited1656474.jpg,256,256,donut,84,1,231,129
edited1656474.jpg,256,256,donut,18,136,147,256
edited2151301.jpg,256,256,cake,4,71,256,226
edited1837129.jpg,256,256,cake,1,1,256,256
edited2022199.jpg,256,256,mac and cheese,1,14,256,232
edited1781975.jpg,256,256,donut,18,93,110,216
edited1781975.jpg,256,256,donut,172,107,245,202
edited2213179.jpg,256,256,cake,2,4,256,195
edited2072566.jpg,256,256,mac and cheese,1,47,163,227
edited1764067.jpg,256,256,ice cream,35,17,212,239
edited1931030.jpg,256,256,cake,58,80,255,250
edited2180293.jpg,256,256,donut,1,122,94,226
edited2180293.jpg,256,256,donut,180,121,256,234
edited2180293.jpg,256,256,donut,31,21,107,93
images - 2021-01-15T124137.828.jpg,276,183,sandwich,110,65,174,126
images - 2021-01-15T124137.828.jpg,276,183,sandwich,189,73,250,127
edited1744255.jpg,256,256,donut,77,16,196,108
edited1744255.jpg,256,256,donut,120,132,248,249
edited2370539.jpg,256,256,garlic bread,16,39,244,199
edited2385886.jpg,256,256,mac and cheese,44,51,217,203
edited2185220.jpg,256,256,donut,122,70,242,164
edited2185220.jpg,256,256,donut,5,64,121,161
images - 2021-01-15T124140.223.jpg,256,197,sandwich,60,39,213,115
edited1 (23).jpg,256,256,apple,96,12,201,197
edited2425550.jpg,256,256,mac and cheese,5,5,256,252
images - 2021-01-15T124138.052.jpg,259,194,sandwich,5,7,225,124
edited2020165.jpg,256,256,ice cream,42,17,229,211
edited1806490.jpg,256,256,ice cream,1,75,134,256
edited2898444.jpg,256,256,garlic bread,1,15,255,244
edited1 (53).jpg,256,256,apple,87,56,175,197
edited2144632.jpg,256,256,omellete,4,29,256,239
edited2165749.jpg,256,256,ice cream,9,10,256,249
edited2594725.jpg,256,256,garlic bread,42,81,256,219
edited2452990.jpg,256,256,french fries,4,3,256,256
edited1 (37).jpg,256,256,apple,111,29,200,191
edited2290677.jpg,256,256,donut,55,198,94,224
edited2290677.jpg,256,256,donut,150,196,200,226
edited2374038.jpg,256,256,garlic bread,69,24,178,228
edited2776756.jpg,256,256,garlic bread,110,25,256,234
edited2070433.jpg,256,256,ice cream,12,41,256,244
editedimages - 2021-01-13T122810.966.jpg,256,256,rice,4,19,112,206
edited2 (45).jpg,256,256,apple,93,60,177,209
edited2129966.jpg,256,256,cake,11,20,221,199
edited2226530.jpg,256,256,donut,1,118,89,241
edited2226530.jpg,256,256,donut,183,134,256,256
edited2226530.jpg,256,256,donut,82,22,185,131
edited2335210.jpg,256,256,french fries,8,5,256,256
edited1873888.jpg,256,256,ice cream,67,65,177,161
edited2 (13).jpg,256,256,apple,86,10,188,200
edited1 (56).jpg,256,256,apple,107,29,200,185
edited1843156.jpg,256,256,donut,9,58,149,201
edited2297848.jpg,256,256,omellete,45,51,224,201
edited2436212.jpg,256,256,cake,26,14,194,187
edited1785850.jpg,256,256,cake,4,9,256,223
editedimages - 2021-01-13T122751.576.jpg,256,256,rice,28,17,217,241
edited1775105.jpg,256,256,omellete,1,41,179,144
images - 2021-01-15T124142.796.jpg,195,258,sandwich,4,62,195,181
edited2019838.jpg,256,256,mac and cheese,2,2,256,256
edited2286184.jpg,256,256,cake,27,14,198,157
edited2290602.jpg,256,256,mac and cheese,16,14,238,225
edited2404088.jpg,256,256,omellete,1,25,252,254
editedimages - 2021-01-13T122807.030.jpg,256,256,rice,15,21,239,249
edited1840238.jpg,256,256,donut,39,53,138,128
edited1840238.jpg,256,256,donut,43,134,155,248
edited9k_ (6).jpg,256,256,rice,34,14,232,174
edited2065905.jpg,256,256,donut,1,145,127,246
edited2065905.jpg,256,256,donut,135,89,251,141
edited2221010.jpg,256,256,ice cream,1,7,256,256
edited1702381.jpg,256,256,donut,6,42,131,227
edited2106366.jpg,256,256,french fries,35,6,256,173
edited3 (52).jpg,256,256,apple,75,6,231,238
edited2641001.jpg,256,256,french fries,2,3,256,256
edited2429892.jpg,256,256,french fries,1,72,256,256
edited2195192.jpg,256,256,french fries,1,2,256,256
edited1905911.jpg,256,256,ice cream,7,60,142,152
edited2147039.jpg,256,256,mac and cheese,1,49,225,252
edited1983737.jpg,256,256,cake,37,31,254,196
editedimages - 2021-01-13T122723.614.jpg,256,256,rice,1,82,237,212
images - 2021-01-15T124207.239.jpg,258,196,sandwich,14,6,242,185
edited1518349.jpg,256,256,donut,21,91,166,211
edited1518349.jpg,256,256,donut,74,1,199,72
editedimages - 2021-01-13T122726.066.jpg,256,256,rice,26,1,256,251
edited1939473.jpg,256,256,ice cream,25,29,227,256
edited2536896.jpg,256,256,french fries,5,14,256,225
edited2057956.jpg,256,256,cake,2,2,188,181
editedimages - 2021-01-13T122752.783.jpg,256,256,rice,50,69,256,256
edited1715734.jpg,256,256,mac and cheese,53,57,225,204
edited2278633.jpg,256,256,french fries,1,1,256,256
edited2036809.jpg,256,256,ice cream,26,59,215,247
edited2241503.jpg,256,256,donut,50,39,232,189
editedimages - 2021-01-13T122817.627.jpg,256,256,rice,50,81,171,210
edited1919999.jpg,256,256,mac and cheese,18,56,227,220
editedimages - 2021-01-13T122733.415.jpg,256,256,rice,4,57,256,241
images (66).jpg,301,167,sandwich,89,24,297,106
edited1995311.jpg,256,256,ice cream,173,39,205,98
edited1995311.jpg,256,256,ice cream,217,124,254,213
edited1995311.jpg,256,256,ice cream,70,34,102,99
edited1995311.jpg,256,256,ice cream,87,115,123,196
edited2522964.jpg,256,256,french fries,2,13,204,176
edited2 (16).jpg,256,256,apple,81,41,190,215
